Lab_5/THE LAST EXP/ALL0004/F0004CH1.CSV

Record Length,2.500000e+03,,   0.000000311000,   6.52000,
Sample Interval,1.000000e-10,,   0.000000311100,   6.52000,
Trigger Point,-3.110000000000e+03,,   0.000000311200,   6.52000,
,,,   0.000000311300,   6.52000,
,,,   0.000000311400,   6.52000,
,,,   0.000000311500,   6.52000,
Source,CH1,,   0.000000311600,   6.52000,
Vertical Units,V,,   0.000000311700,   6.52000,
Vertical Scale,1.000000e+00,,   0.000000311800,   6.52000,
Vertical Offset,-2.880000e+00,,   0.000000311900,   6.52000,
Horizontal Units,s,,   0.000000312000,   6.56000,
Horizontal Scale,2.500000e-08,,   0.000000312100,   6.56000,
Pt Fmt,Y,,   0.000000312200,   6.56000,
Yzero,0.000000e+00,,   0.000000312300,   6.56000,
Probe Atten,1.000000e+01,,   0.000000312400,   6.56000,
Model Number,TBS1072B-EDU,,   0.000000312500,   6.56000,
Serial Number,C031464,,   0.000000312600,   6.56000,
Firmware Version,FV:v4.06,,   0.000000312700,   6.56000,
,,,0.000000312800,   6.56000,
,,,0.000000312900,   6.56000,
,,,0.000000313000,   6.56000,
,,,0.000000313100,   6.56000,
,,,0.000000313200,   6.56000,
,,,0.000000313300,   6.56000,
,,,0.000000313400,   6.56000,
,,,0.000000313500,   6.56000,
,,,0.000000313600,   6.60000,
,,,0.000000313700,   6.60000,
,,,0.000000313800,   6.60000,
,,,0.000000313900,   6.60000,
,,,0.000000314000,   6.60000,
,,,0.000000314100,   6.64000,
,,,0.000000314200,   6.64000,
,,,0.000000314300,   6.64000,
,,,0.000000314400,   6.64000,
,,,0.000000314500,   6.64000,
,,,0.000000314600,   6.64000,
,,,0.000000314700,   6.64000,
,,,0.000000314800,   6.64000,
,,,0.000000314900,   6.64000,
,,,0.000000315000,   6.64000,
,,,0.000000315100,   6.64000,
,,,0.000000315200,   6.64000,
,,,0.000000315300,   6.64000,
,,,0.000000315400,   6.64000,
,,,0.000000315500,   6.64000,
,,,0.000000315600,   6.64000,
,,,0.000000315700,   6.64000,
,,,0.000000315800,   6.64000,
,,,0.000000315900,   6.64000,
,,,0.000000316000,   6.64000,
,,,0.000000316100,   6.64000,
,,,0.000000316200,   6.64000,
,,,0.000000316300,   6.64000,
,,,0.000000316400,   6.64000,
,,,0.000000316500,   6.64000,
,,,0.000000316600,   6.64000,
,,,0.000000316700,   6.64000,
,,,0.000000316800,   6.64000,
,,,0.000000316900,   6.64000,
,,,0.000000317000,   6.68000,
,,,0.000000317100,   6.68000,
,,,0.000000317200,   6.68000,
,,,0.000000317300,   6.68000,
,,,0.000000317400,   6.68000,
,,,0.000000317500,   6.68000,
,,,0.000000317600,   6.68000,
,,,0.000000317700,   6.68000,
,,,0.000000317800,   6.68000,
,,,0.000000317900,   6.68000,
,,,0.000000318000,   6.72000,
,,,0.000000318100,   6.72000,
,,,0.000000318200,   6.72000,
,,,0.000000318300,   6.72000,
,,,0.000000318400,   6.72000,
,,,0.000000318500,   6.72000,
,,,0.000000318600,   6.72000,
,,,0.000000318700,   6.72000,
,,,0.000000318800,   6.72000,
,,,0.000000318900,   6.72000,
,,,0.000000319000,   6.76000,
,,,0.000000319100,   6.76000,
,,,0.000000319200,   6.76000,
,,,0.000000319300,   6.76000,
,,,0.000000319400,   6.76000,
,,,0.000000319500,   6.76000,
,,,0.000000319600,   6.76000,
,,,0.000000319700,   6.76000,
,,,0.000000319800,   6.76000,
,,,0.000000319900,   6.76000,
,,,0.000000320000,   6.76000,
,,,0.000000320100,   6.76000,
,,,0.000000320200,   6.76000,
,,,0.000000320300,   6.76000,
,,,0.000000320400,   6.76000,
,,,0.000000320500,   6.76000,
,,,0.000000320600,   6.76000,
,,,0.000000320700,   6.76000,
,,,0.000000320800,   6.76000,
,,,0.000000320900,   6.76000,
,,,0.000000321000,   6.76000,
,,,0.000000321100,   6.76000,
,,,0.000000321200,   6.76000,
,,,0.000000321300,   6.72000,
,,,0.000000321400,   6.72000,
,,,0.000000321500,   6.72000,
,,,0.000000321600,   6.72000,
,,,0.000000321700,   6.72000,
,,,0.000000321800,   6.72000,
,,,0.000000321900,   6.72000,
,,,0.000000322000,   6.72000,
,,,0.000000322100,   6.72000,
,,,0.000000322200,   6.72000,
,,,0.000000322300,   6.72000,
,,,0.000000322400,   6.72000,
,,,0.000000322500,   6.72000,
,,,0.000000322600,   6.72000,
,,,0.000000322700,   6.72000,
,,,0.000000322800,   6.72000,
,,,0.000000322900,   6.72000,
,,,0.000000323000,   6.72000,
,,,0.000000323100,   6.72000,
,,,0.000000323200,   6.72000,
,,,0.000000323300,   6.72000,
,,,0.000000323400,   6.72000,
,,,0.000000323500,   6.72000,
,,,0.000000323600,   6.72000,
,,,0.000000323700,   6.72000,
,,,0.000000323800,   6.72000,
,,,0.000000323900,   6.72000,
,,,0.000000324000,   6.72000,
,,,0.000000324100,   6.72000,
,,,0.000000324200,   6.68000,
,,,0.000000324300,   6.68000,
,,,0.000000324400,   6.68000,
,,,0.000000324500,   6.68000,
,,,0.000000324600,   6.68000,
,,,0.000000324700,   6.68000,
,,,0.000000324800,   6.64000,
,,,0.000000324900,   6.64000,
,,,0.000000325000,   6.64000,
,,,0.000000325100,   6.64000,
,,,0.000000325200,   6.60000,
,,,0.000000325300,   6.60000,
,,,0.000000325400,   6.60000,
,,,0.000000325500,   6.60000,
,,,0.000000325600,   6.60000,
,,,0.000000325700,   6.56000,
,,,0.000000325800,   6.56000,
,,,0.000000325900,   6.56000,
,,,0.000000326000,   6.56000,
,,,0.000000326100,   6.56000,
,,,0.000000326200,   6.52000,
,,,0.000000326300,   6.52000,
,,,0.000000326400,   6.52000,
,,,0.000000326500,   6.52000,
,,,0.000000326600,   6.52000,
,,,0.000000326700,   6.52000,
,,,0.000000326800,   6.52000,
,,,0.000000326900,   6.52000,
,,,0.000000327000,   6.52000,
,,,0.000000327100,   6.52000,
,,,0.000000327200,   6.52000,
,,,0.000000327300,   6.52000,
,,,0.000000327400,   6.48000,
,,,0.000000327500,   6.48000,
,,,0.000000327600,   6.48000,
,,,0.000000327700,   6.48000,
,,,0.000000327800,   6.48000,
,,,0.000000327900,   6.48000,
,,,0.000000328000,   6.48000,
,,,0.000000328100,   6.48000,
,,,0.000000328200,   6.44000,
,,,0.000000328300,   6.44000,
,,,0.000000328400,   6.44000,
,,,0.000000328500,   6.44000,
,,,0.000000328600,   6.40000,
,,,0.000000328700,   6.40000,
,,,0.000000328800,   6.40000,
,,,0.000000328900,   6.36000,
,,,0.000000329000,   6.36000,
,,,0.000000329100,   6.36000,
,,,0.000000329200,   6.32000,
,,,0.000000329300,   6.32000,
,,,0.000000329400,   6.32000,
,,,0.000000329500,   6.28000,
,,,0.000000329600,   6.28000,
,,,0.000000329700,   6.28000,
,,,0.000000329800,   6.28000,
,,,0.000000329900,   6.24000,
,,,0.000000330000,   6.24000,
,,,0.000000330100,   6.24000,
,,,0.000000330200,   6.20000,
,,,0.000000330300,   6.20000,
,,,0.000000330400,   6.20000,
,,,0.000000330500,   6.16000,
,,,0.000000330600,   6.16000,
,,,0.000000330700,   6.16000,
,,,0.000000330800,   6.16000,
,,,0.000000330900,   6.12000,
,,,0.000000331000,   6.12000,
,,,0.000000331100,   6.12000,
,,,0.000000331200,   6.08000,
,,,0.000000331300,   6.08000,
,,,0.000000331400,   6.04000,
,,,0.000000331500,   6.04000,
,,,0.000000331600,   6.04000,
,,,0.000000331700,   6.00000,
,,,0.000000331800,   6.00000,
,,,0.000000331900,   5.96000,
,,,0.000000332000,   5.96000,
,,,0.000000332100,   5.96000,
,,,0.000000332200,   5.92000,
,,,0.000000332300,   5.92000,
,,,0.000000332400,   5.92000,
,,,0.000000332500,   5.88000,
,,,0.000000332600,   5.88000,
,,,0.000000332700,   5.88000,
,,,0.000000332800,   5.88000,
,,,0.000000332900,   5.84000,
,,,0.000000333000,   5.84000,
,,,0.000000333100,   5.84000,
,,,0.000000333200,   5.80000,
,,,0.000000333300,   5.80000,
,,,0.000000333400,   5.76000,
,,,0.000000333500,   5.76000,
,,,0.000000333600,   5.72000,
,,,0.000000333700,   5.72000,
,,,0.000000333800,   5.68000,
,,,0.000000333900,   5.68000,
,,,0.000000334000,   5.64000,
,,,0.000000334100,   5.64000,
,,,0.000000334200,   5.60000,
,,,0.000000334300,   5.60000,
,,,0.000000334400,   5.56000,
,,,0.000000334500,   5.56000,
,,,0.000000334600,   5.52000,
,,,0.000000334700,   5.52000,
,,,0.000000334800,   5.48000,
,,,0.000000334900,   5.48000,
,,,0.000000335000,   5.44000,
,,,0.000000335100,   5.44000,
,,,0.000000335200,   5.40000,
,,,0.000000335300,   5.40000,
,,,0.000000335400,   5.36000,
,,,0.000000335500,   5.36000,
,,,0.000000335600,   5.32000,
,,,0.000000335700,   5.32000,
,,,0.000000335800,   5.28000,
,,,0.000000335900,   5.28000,
,,,0.000000336000,   5.24000,
,,,0.000000336100,   5.24000,
,,,0.000000336200,   5.20000,
,,,0.000000336300,   5.16000,
,,,0.000000336400,   5.16000,
,,,0.000000336500,   5.12000,
,,,0.000000336600,   5.12000,
,,,0.000000336700,   5.08000,
,,,0.000000336800,   5.04000,
,,,0.000000336900,   5.04000,
,,,0.000000337000,   5.00000,
,,,0.000000337100,   5.00000,
,,,0.000000337200,   4.96000,
,,,0.000000337300,   4.96000,
,,,0.000000337400,   4.92000,
,,,0.000000337500,   4.92000,
,,,0.000000337600,   4.88000,
,,,0.000000337700,   4.88000,
,,,0.000000337800,   4.84000,
,,,0.000000337900,   4.84000,
,,,0.000000338000,   4.80000,
,,,0.000000338100,   4.80000,
,,,0.000000338200,   4.76000,
,,,0.000000338300,   4.76000,
,,,0.000000338400,   4.72000,
,,,0.000000338500,   4.72000,
,,,0.000000338600,   4.68000,
,,,0.000000338700,   4.68000,
,,,0.000000338800,   4.64000,
,,,0.000000338900,   4.64000,
,,,0.000000339000,   4.60000,
,,,0.000000339100,   4.60000,
,,,0.000000339200,   4.56000,
,,,0.000000339300,   4.52000,
,,,0.000000339400,   4.52000,
,,,0.000000339500,   4.48000,
,,,0.000000339600,   4.48000,
,,,0.000000339700,   4.44000,
,,,0.000000339800,   4.40000,
,,,0.000000339900,   4.40000,
,,,0.000000340000,   4.36000,
,,,0.000000340100,   4.36000,
,,,0.000000340200,   4.32000,
,,,0.000000340300,   4.32000,
,,,0.000000340400,   4.28000,
,,,0.000000340500,   4.28000,
,,,0.000000340600,   4.24000,
,,,0.000000340700,   4.24000,
,,,0.000000340800,   4.20000,
,,,0.000000340900,   4.20000,
,,,0.000000341000,   4.16000,
,,,0.000000341100,   4.16000,
,,,0.000000341200,   4.12000,
,,,0.000000341300,   4.08000,
,,,0.000000341400,   4.08000,
,,,0.000000341500,   4.04000,
,,,0.000000341600,   4.04000,
,,,0.000000341700,   4.00000,
,,,0.000000341800,   3.96000,
,,,0.000000341900,   3.96000,
,,,0.000000342000,   3.92000,
,,,0.000000342100,   3.92000,
,,,0.000000342200,   3.88000,
,,,0.000000342300,   3.84000,
,,,0.000000342400,   3.84000,
,,,0.000000342500,   3.80000,
,,,0.000000342600,   3.80000,
,,,0.000000342700,   3.76000,
,,,0.000000342800,   3.76000,
,,,0.000000342900,   3.72000,
,,,0.000000343000,   3.68000,
,,,0.000000343100,   3.68000,
,,,0.000000343200,   3.64000,
,,,0.000000343300,   3.60000,
,,,0.000000343400,   3.60000,
,,,0.000000343500,   3.56000,
,,,0.000000343600,   3.52000,
,,,0.000000343700,   3.48000,
,,,0.000000343800,   3.48000,
,,,0.000000343900,   3.44000,
,,,0.000000344000,   3.40000,
,,,0.000000344100,   3.40000,
,,,0.000000344200,   3.36000,
,,,0.000000344300,   3.32000,
,,,0.000000344400,   3.32000,
,,,0.000000344500,   3.28000,
,,,0.000000344600,   3.28000,
,,,0.000000344700,   3.24000,
,,,0.000000344800,   3.20000,
,,,0.000000344900,   3.20000,
,,,0.000000345000,   3.16000,
,,,0.000000345100,   3.16000,
,,,0.000000345200,   3.12000,
,,,0.000000345300,   3.08000,
,,,0.000000345400,   3.08000,
,,,0.000000345500,   3.04000,
,,,0.000000345600,   3.04000,
,,,0.000000345700,   3.00000,
,,,0.000000345800,   3.00000,
,,,0.000000345900,   2.96000,
,,,0.000000346000,   2.92000,
,,,0.000000346100,   2.92000,
,,,0.000000346200,   2.88000,
,,,0.000000346300,   2.84000,
,,,0.000000346400,   2.84000,
,,,0.000000346500,   2.80000,
,,,0.000000346600,   2.76000,
,,,0.000000346700,   2.72000,
,,,0.000000346800,   2.72000,
,,,0.000000346900,   2.68000,
,,,0.000000347000,   2.64000,
,,,0.000000347100,   2.64000,
,,,0.000000347200,   2.60000,
,,,0.000000347300,   2.56000,
,,,0.000000347400,   2.56000,
,,,0.000000347500,   2.52000,
,,,0.000000347600,   2.52000,
,,,0.000000347700,   2.48000,
,,,0.000000347800,   2.44000,
,,,0.000000347900,   2.44000,
,,,0.000000348000,   2.40000,
,,,0.000000348100,   2.40000,
,,,0.000000348200,   2.36000,
,,,0.000000348300,   2.36000,
,,,0.000000348400,   2.32000,
,,,0.000000348500,   2.32000,
,,,0.000000348600,   2.28000,
,,,0.000000348700,   2.28000,
,,,0.000000348800,   2.24000,
,,,0.000000348900,   2.24000,
,,,0.000000349000,   2.20000,
,,,0.000000349100,   2.20000,
,,,0.000000349200,   2.16000,
,,,0.000000349300,   2.16000,
,,,0.000000349400,   2.12000,
,,,0.000000349500,   2.12000,
,,,0.000000349600,   2.08000,
,,,0.000000349700,   2.08000,
,,,0.000000349800,   2.04000,
,,,0.000000349900,   2.04000,
,,,0.000000350000,   2.00000,
,,,0.000000350100,   2.00000,
,,,0.000000350200,   1.96000,
,,,0.000000350300,   1.92000,
,,,0.000000350400,   1.92000,
,,,0.000000350500,   1.88000,
,,,0.000000350600,   1.88000,
,,,0.000000350700,   1.84000,
,,,0.000000350800,   1.80000,
,,,0.000000350900,   1.80000,
,,,0.000000351000,   1.76000,
,,,0.000000351100,   1.76000,
,,,0.000000351200,   1.72000,
,,,0.000000351300,   1.72000,
,,,0.000000351400,   1.68000,
,,,0.000000351500,   1.68000,
,,,0.000000351600,   1.68000,
,,,0.000000351700,   1.64000,
,,,0.000000351800,   1.64000,
,,,0.000000351900,   1.60000,
,,,0.000000352000,   1.60000,
,,,0.000000352100,   1.60000,
,,,0.000000352200,   1.56000,
,,,0.000000352300,   1.56000,
,,,0.000000352400,   1.52000,
,,,0.000000352500,   1.52000,
,,,0.000000352600,   1.52000,
,,,0.000000352700,   1.48000,
,,,0.000000352800,   1.48000,
,,,0.000000352900,   1.44000,
,,,0.000000353000,   1.44000,
,,,0.000000353100,   1.44000,
,,,0.000000353200,   1.40000,
,,,0.000000353300,   1.40000,
,,,0.000000353400,   1.40000,
,,,0.000000353500,   1.36000,
,,,0.000000353600,   1.36000,
,,,0.000000353700,   1.36000,
,,,0.000000353800,   1.32000,
,,,0.000000353900,   1.32000,
,,,0.000000354000,   1.32000,
,,,0.000000354100,   1.32000,
,,,0.000000354200,   1.28000,
,,,0.000000354300,   1.28000,
,,,0.000000354400,   1.28000,
,,,0.000000354500,   1.28000,
,,,0.000000354600,   1.28000,
,,,0.000000354700,   1.28000,
,,,0.000000354800,   1.24000,
,,,0.000000354900,   1.24000,
,,,0.000000355000,   1.24000,
,,,0.000000355100,   1.24000,
,,,0.000000355200,   1.20000,
,,,0.000000355300,   1.20000,
,,,0.000000355400,   1.20000,
,,,0.000000355500,   1.16000,
,,,0.000000355600,   1.16000,
,,,0.000000355700,   1.12000,
,,,0.000000355800,   1.12000,
,,,0.000000355900,   1.08000,
,,,0.000000356000,   1.08000,
,,,0.000000356100,   1.08000,
,,,0.000000356200,   1.04000,
,,,0.000000356300,   1.04000,
,,,0.000000356400,   1.04000,
,,,0.000000356500,   1.00000,
,,,0.000000356600,   1.00000,
,,,0.000000356700,   1.00000,
,,,0.000000356800,   0.96000,
,,,0.000000356900,   0.96000,
,,,0.000000357000,   0.96000,
,,,0.000000357100,   0.96000,
,,,0.000000357200,   0.92000,
,,,0.000000357300,   0.92000,
,,,0.000000357400,   0.92000,
,,,0.000000357500,   0.88000,
,,,0.000000357600,   0.88000,
,,,0.000000357700,   0.88000,
,,,0.000000357800,   0.84000,
,,,0.000000357900,   0.84000,
,,,0.000000358000,   0.84000,
,,,0.000000358100,   0.84000,
,,,0.000000358200,   0.80000,
,,,0.000000358300,   0.80000,
,,,0.000000358400,   0.80000,
,,,0.000000358500,   0.80000,
,,,0.000000358600,   0.80000,
,,,0.000000358700,   0.80000,
,,,0.000000358800,   0.80000,
,,,0.000000358900,   0.80000,
,,,0.000000359000,   0.80000,
,,,0.000000359100,   0.80000,
,,,0.000000359200,   0.80000,
,,,0.000000359300,   0.80000,
,,,0.000000359400,   0.76000,
,,,0.000000359500,   0.76000,
,,,0.000000359600,   0.76000,
,,,0.000000359700,   0.76000,
,,,0.000000359800,   0.76000,
,,,0.000000359900,   0.76000,
,,,0.000000360000,   0.76000,
,,,0.000000360100,   0.76000,
,,,0.000000360200,   0.72000,
,,,0.000000360300,   0.72000,
,,,0.000000360400,   0.72000,
,,,0.000000360500,   0.68000,
,,,0.000000360600,   0.68000,
,,,0.000000360700,   0.68000,
,,,0.000000360800,   0.64000,
,,,0.000000360900,   0.64000,
,,,0.000000361000,   0.64000,
,,,0.000000361100,   0.64000,
,,,0.000000361200,   0.64000,
,,,0.000000361300,   0.64000,
,,,0.000000361400,   0.60000,
,,,0.000000361500,   0.60000,
,,,0.000000361600,   0.64000,
,,,0.000000361700,   0.64000,
,,,0.000000361800,   0.64000,
,,,0.000000361900,   0.64000,
,,,0.000000362000,   0.64000,
,,,0.000000362100,   0.64000,
,,,0.000000362200,   0.64000,
,,,0.000000362300,   0.64000,
,,,0.000000362400,   0.60000,
,,,0.000000362500,   0.60000,
,,,0.000000362600,   0.60000,
,,,0.000000362700,   0.60000,
,,,0.000000362800,   0.60000,
,,,0.000000362900,   0.60000,
,,,0.000000363000,   0.60000,
,,,0.000000363100,   0.60000,
,,,0.000000363200,   0.56000,
,,,0.000000363300,   0.56000,
,,,0.000000363400,   0.56000,
,,,0.000000363500,   0.56000,
,,,0.000000363600,   0.56000,
,,,0.000000363700,   0.52000,
,,,0.000000363800,   0.52000,
,,,0.000000363900,   0.52000,
,,,0.000000364000,   0.52000,
,,,0.000000364100,   0.52000,
,,,0.000000364200,   0.48000,
,,,0.000000364300,   0.48000,
,,,0.000000364400,   0.48000,
,,,0.000000364500,   0.48000,
,,,0.000000364600,   0.48000,
,,,0.000000364700,   0.48000,
,,,0.000000364800,   0.48000,
,,,0.000000364900,   0.48000,
,,,0.000000365000,   0.48000,
,,,0.000000365100,   0.48000,
,,,0.000000365200,   0.48000,
,,,0.000000365300,   0.44000,
,,,0.000000365400,   0.44000,
,,,0.000000365500,   0.44000,
,,,0.000000365600,   0.44000,
,,,0.000000365700,   0.44000,
,,,0.000000365800,   0.44000,
,,,0.000000365900,   0.44000,
,,,0.000000366000,   0.44000,
,,,0.000000366100,   0.44000,
,,,0.000000366200,   0.44000,
,,,0.000000366300,   0.44000,
,,,0.000000366400,   0.44000,
,,,0.000000366500,   0.44000,
,,,0.000000366600,   0.44000,
,,,0.000000366700,   0.44000,
,,,0.000000366800,   0.44000,
,,,0.000000366900,   0.44000,
,,,0.000000367000,   0.44000,
,,,0.000000367100,   0.44000,
,,,0.000000367200,   0.44000,
,,,0.000000367300,   0.40000,
,,,0.000000367400,   0.40000,
,,,0.000000367500,   0.40000,
,,,0.000000367600,   0.40000,
,,,0.000000367700,   0.40000,
,,,0.000000367800,   0.40000,
,,,0.000000367900,   0.40000,
,,,0.000000368000,   0.40000,
,,,0.000000368100,   0.40000,
,,,0.000000368200,   0.40000,
,,,0.000000368300,   0.36000,
,,,0.000000368400,   0.36000,
,,,0.000000368500,   0.36000,
,,,0.000000368600,   0.36000,
,,,0.000000368700,   0.36000,
,,,0.000000368800,   0.36000,
,,,0.000000368900,   0.36000,
,,,0.000000369000,   0.36000,
,,,0.000000369100,   0.36000,
,,,0.000000369200,   0.36000,
,,,0.000000369300,   0.32000,
,,,0.000000369400,   0.32000,
,,,0.000000369500,   0.32000,
,,,0.000000369600,   0.32000,
,,,0.000000369700,   0.32000,
,,,0.000000369800,   0.32000,
,,,0.000000369900,   0.32000,
,,,0.000000370000,   0.32000,
,,,0.000000370100,   0.32000,
,,,0.000000370200,   0.32000,
,,,0.000000370300,   0.28000,
,,,0.000000370400,   0.28000,
,,,0.000000370500,   0.28000,
,,,0.000000370600,   0.28000,
,,,0.000000370700,   0.28000,
,,,0.000000370800,   0.28000,
,,,0.000000370900,   0.28000,
,,,0.000000371000,   0.28000,
,,,0.000000371100,   0.28000,
,,,0.000000371200,   0.28000,
,,,0.000000371300,   0.28000,
,,,0.000000371400,   0.28000,
,,,0.000000371500,   0.28000,
,,,0.000000371600,   0.28000,
,,,0.000000371700,   0.28000,
,,,0.000000371800,   0.28000,
,,,0.000000371900,   0.28000,
,,,0.000000372000,   0.28000,
,,,0.000000372100,   0.28000,
,,,0.000000372200,   0.28000,
,,,0.000000372300,   0.28000,
,,,0.000000372400,   0.28000,
,,,0.000000372500,   0.28000,
,,,0.000000372600,   0.28000,
,,,0.000000372700,   0.28000,
,,,0.000000372800,   0.28000,
,,,0.000000372900,   0.28000,
,,,0.000000373000,   0.28000,
,,,0.000000373100,   0.28000,
,,,0.000000373200,   0.28000,
,,,0.000000373300,   0.28000,
,,,0.000000373400,   0.28000,
,,,0.000000373500,   0.28000,
,,,0.000000373600,   0.28000,
,,,0.000000373700,   0.28000,
,,,0.000000373800,   0.28000,
,,,0.000000373900,   0.28000,
,,,0.000000374000,   0.28000,
,,,0.000000374100,   0.28000,
,,,0.000000374200,   0.28000,
,,,0.000000374300,   0.24000,
,,,0.000000374400,   0.24000,
,,,0.000000374500,   0.24000,
,,,0.000000374600,   0.24000,
,,,0.000000374700,   0.24000,
,,,0.000000374800,   0.24000,
,,,0.000000374900,   0.24000,
,,,0.000000375000,   0.24000,
,,,0.000000375100,   0.24000,
,,,0.000000375200,   0.24000,
,,,0.000000375300,   0.24000,
,,,0.000000375400,   0.24000,
,,,0.000000375500,   0.24000,
,,,0.000000375600,   0.24000,
,,,0.000000375700,   0.24000,
,,,0.000000375800,   0.24000,
,,,0.000000375900,   0.24000,
,,,0.000000376000,   0.24000,
,,,0.000000376100,   0.24000,
,,,0.000000376200,   0.24000,
,,,0.000000376300,   0.24000,
