Lab_2/ALL0002/F0002FFT.CSV

Record Length,1.024000e+03,,          0.00000, -44.54850,
Sample Interval,4.932134e+00,,          4.93213, -41.34850,
Trigger Point,-0.000000000000e+00,,          9.86427, -48.14850,
,,,         14.79640, -72.54850,
,,,         19.72854, -74.94850,
,,,         24.66067, -74.94850,
Source,FFT,,         29.59280, -74.94850,
Vertical Units,dB,,         34.52494, -74.94850,
Vertical Scale,1.000000e+01,,         39.45707, -72.54850,
Vertical Offset,0.000000e+00,,         44.38920, -74.94850,
Horizontal Units,Hz,,         49.32134, -74.94850,
Horizontal Scale,5.050505e+02,,         54.25347, -74.94850,
Pt Fmt,Y,,         59.18561, -72.54850,
Yzero,-3.494850e+01,,         64.11774, -74.94850,
Probe Atten,1.000000e+00,,         69.04987, -74.94850,
Model Number,TBS1072B-EDU,,         73.98201, -72.54850,
Serial Number,C031464,,         78.91414, -74.94850,
Firmware Version,FV:v4.06,,         83.84628, -74.94850,
,,,88.77841, -74.94850,
,,,93.71054, -74.94850,
,,,98.64267, -74.94850,
,,,103.57480, -74.94850,
,,,108.50693, -74.94850,
,,,113.43906, -74.94850,
,,,118.37119, -74.94850,
,,,123.30332, -74.94850,
,,,128.23545, -74.94850,
,,,133.16758, -74.94850,
,,,138.09971, -74.94850,
,,,143.03184, -74.94850,
,,,147.96397, -74.94850,
,,,152.89610, -74.94850,
,,,157.82823, -72.54850,
,,,162.76036, -74.94850,
,,,167.69249, -74.94850,
,,,172.62462, -74.94850,
,,,177.55675, -74.94850,
,,,182.48888, -74.94850,
,,,187.42101, -74.94850,
,,,192.35314, -74.94850,
,,,197.28527, -74.94850,
,,,202.21740, -74.94850,
,,,207.14953, -72.54850,
,,,212.08166, -74.94850,
,,,217.01379, -72.54850,
,,,221.94592, -72.54850,
,,,226.87805, -74.94850,
,,,231.81018, -74.94850,
,,,236.74231, -74.94850,
,,,241.67444, -74.94850,
,,,246.60657, -74.94850,
,,,251.53870, -72.54850,
,,,256.47083, -74.94850,
,,,261.40296, -72.54850,
,,,266.33509, -74.94850,
,,,271.26722, -74.94850,
,,,276.19935, -74.94850,
,,,281.13148, -74.94850,
,,,286.06361, -74.94850,
,,,290.99574, -74.94850,
,,,295.92787, -74.94850,
,,,300.86000, -74.94850,
,,,305.79213, -74.94850,
,,,310.72426, -72.54850,
,,,315.65639, -74.94850,
,,,320.58852, -69.34850,
,,,325.52065, -74.94850,
,,,330.45278, -74.94850,
,,,335.38491, -74.94850,
,,,340.31704, -74.94850,
,,,345.24917, -74.94850,
,,,350.18130, -74.94850,
,,,355.11343, -74.94850,
,,,360.04556, -74.94850,
,,,364.97769, -74.94850,
,,,369.90982, -74.94850,
,,,374.84195, -74.94850,
,,,379.77408, -74.94850,
,,,384.70621, -74.94850,
,,,389.63834, -74.94850,
,,,394.57047, -74.94850,
,,,399.50260, -74.94850,
,,,404.43473, -74.94850,
,,,409.36686, -74.94850,
,,,414.29899, -74.94850,
,,,419.23112, -74.94850,
,,,424.16325, -74.94850,
,,,429.09538, -74.94850,
,,,434.02751, -74.94850,
,,,438.95964, -72.54850,
,,,443.89177, -74.94850,
,,,448.82390, -74.94850,
,,,453.75603, -74.94850,
,,,458.68816, -74.94850,
,,,463.62029, -74.94850,
,,,468.55242, -74.94850,
,,,473.48455, -74.94850,
,,,478.41668, -74.94850,
,,,483.34881, -74.94850,
,,,488.28094, -72.54850,
,,,493.21307, -72.54850,
,,,498.14520, -74.94850,
,,,503.07733, -72.54850,
,,,508.00946, -72.54850,
,,,512.94159, -74.94850,
,,,517.87372, -74.94850,
,,,522.80585, -74.94850,
,,,527.73798, -74.94850,
,,,532.67011, -74.94850,
,,,537.60224, -69.34850,
,,,542.53437, -74.94850,
,,,547.46650, -72.54850,
,,,552.39863, -74.94850,
,,,557.33076, -72.54850,
,,,562.26289, -72.54850,
,,,567.19502, -72.54850,
,,,572.12715, -74.94850,
,,,577.05928, -74.94850,
,,,581.99141, -74.94850,
,,,586.92354, -74.94850,
,,,591.85567, -72.54850,
,,,596.78780, -74.94850,
,,,601.71993, -74.94850,
,,,606.65206, -74.94850,
,,,611.58419, -74.94850,
,,,616.51632, -74.94850,
,,,621.44845, -74.94850,
,,,626.38058, -74.94850,
,,,631.31271, -74.94850,
,,,636.24484, -74.94850,
,,,641.17697, -74.94850,
,,,646.10910, -74.94850,
,,,651.04123, -74.94850,
,,,655.97336, -74.94850,
,,,660.90549, -74.94850,
,,,665.83762, -74.94850,
,,,670.76975, -74.94850,
,,,675.70188, -74.94850,
,,,680.63401, -74.94850,
,,,685.56614, -74.94850,
,,,690.49827, -68.54850,
,,,695.43040, -72.54850,
,,,700.36253, -74.94850,
,,,705.29466, -74.94850,
,,,710.22679, -74.94850,
,,,715.15892, -74.94850,
,,,720.09105, -74.94850,
,,,725.02318, -74.94850,
,,,729.95531, -72.54850,
,,,734.88744, -74.94850,
,,,739.81957, -72.54850,
,,,744.75170, -74.94850,
,,,749.68383, -74.94850,
,,,754.61596, -72.54850,
,,,759.54809, -74.94850,
,,,764.48022, -74.94850,
,,,769.41235, -74.94850,
,,,774.34448, -74.94850,
,,,779.27661, -74.94850,
,,,784.20874, -74.94850,
,,,789.14087, -72.54850,
,,,794.07300, -74.94850,
,,,799.00513, -74.94850,
,,,803.93726, -74.94850,
,,,808.86939, -74.94850,
,,,813.80152, -74.94850,
,,,818.73365, -72.54850,
,,,823.66578, -74.94850,
,,,828.59791, -74.94850,
,,,833.53004, -74.94850,
,,,838.46217, -72.54850,
,,,843.39430, -74.94850,
,,,848.32643, -74.94850,
,,,853.25856, -74.94850,
,,,858.19069, -72.54850,
,,,863.12282, -74.94850,
,,,868.05495, -74.94850,
,,,872.98708, -74.94850,
,,,877.91921, -72.54850,
,,,882.85134, -74.94850,
,,,887.78347, -74.94850,
,,,892.71560, -74.94850,
,,,897.64773, -74.94850,
,,,902.57986, -74.94850,
,,,907.51199, -74.94850,
,,,912.44412, -74.94850,
,,,917.37625, -74.94850,
,,,922.30838, -74.94850,
,,,927.24051, -72.54850,
,,,932.17264, -74.94850,
,,,937.10477, -74.94850,
,,,942.03690, -68.54850,
,,,946.96903, -74.94850,
,,,951.90116, -69.34850,
,,,956.83329, -66.54850,
,,,961.76542, -68.54850,
,,,966.69755, -61.34850,
,,,971.62968, -56.94850,
,,,976.56181, -50.94850,
,,,981.49394, -43.34850,
,,,986.42607, -29.74850,
,,,991.35820,  -9.34850,
,,,996.29033,  -4.94850,
,,,1001.22246,  -4.94850,
,,,1006.15459,  -6.14850,
,,,1011.08672, -15.74850,
,,,1016.01885, -37.34850,
,,,1020.95098, -47.34850,
,,,1025.88311, -54.54850,
,,,1030.81524, -58.94850,
,,,1035.74737, -64.14850,
,,,1040.67950, -68.54850,
,,,1045.61163, -69.34850,
,,,1050.54376, -72.54850,
,,,1055.47589, -69.34850,
,,,1060.40802, -74.94850,
,,,1065.34015, -68.54850,
,,,1070.27228, -72.54850,
,,,1075.20441, -72.54850,
,,,1080.13654, -69.34850,
,,,1085.06867, -74.94850,
,,,1090.00080, -74.94850,
,,,1094.93293, -72.54850,
,,,1099.86506, -74.94850,
,,,1104.79719, -74.94850,
,,,1109.72932, -72.54850,
,,,1114.66145, -74.94850,
,,,1119.59358, -72.54850,
,,,1124.52571, -72.54850,
,,,1129.45784, -74.94850,
,,,1134.38997, -72.54850,
,,,1139.32210, -72.54850,
,,,1144.25423, -68.54850,
,,,1149.18636, -72.54850,
,,,1154.11849, -74.94850,
,,,1159.05062, -74.94850,
,,,1163.98275, -74.94850,
,,,1168.91488, -74.94850,
,,,1173.84701, -74.94850,
,,,1178.77914, -72.54850,
,,,1183.71127, -74.94850,
,,,1188.64340, -74.94850,
,,,1193.57553, -74.94850,
,,,1198.50766, -74.94850,
,,,1203.43979, -72.54850,
,,,1208.37192, -74.94850,
,,,1213.30405, -74.94850,
,,,1218.23618, -74.94850,
,,,1223.16831, -74.94850,
,,,1228.10044, -74.94850,
,,,1233.03257, -74.94850,
,,,1237.96470, -72.54850,
,,,1242.89683, -74.94850,
,,,1247.82896, -74.94850,
,,,1252.76109, -74.94850,
,,,1257.69322, -74.94850,
,,,1262.62535, -74.94850,
,,,1267.55748, -74.94850,
,,,1272.48961, -74.94850,
,,,1277.42174, -74.94850,
,,,1282.35387, -74.94850,
,,,1287.28600, -74.94850,
,,,1292.21813, -74.94850,
,,,1297.15026, -74.94850,
,,,1302.08239, -74.94850,
,,,1307.01452, -74.94850,
,,,1311.94665, -74.94850,
,,,1316.87878, -74.94850,
,,,1321.81091, -74.94850,
,,,1326.74304, -74.94850,
,,,1331.67517, -74.94850,
,,,1336.60730, -74.94850,
,,,1341.53943, -74.94850,
,,,1346.47156, -69.34850,
,,,1351.40369, -74.94850,
,,,1356.33582, -74.94850,
,,,1361.26795, -74.94850,
,,,1366.20008, -74.94850,
,,,1371.13221, -74.94850,
,,,1376.06434, -72.54850,
,,,1380.99647, -74.94850,
,,,1385.92860, -72.54850,
,,,1390.86073, -72.54850,
,,,1395.79286, -74.94850,
,,,1400.72499, -74.94850,
,,,1405.65712, -74.94850,
,,,1410.58925, -74.94850,
,,,1415.52138, -72.54850,
,,,1420.45351, -74.94850,
,,,1425.38564, -74.94850,
,,,1430.31777, -74.94850,
,,,1435.24990, -74.94850,
,,,1440.18203, -74.94850,
,,,1445.11416, -74.94850,
,,,1450.04629, -74.94850,
,,,1454.97842, -74.94850,
,,,1459.91055, -74.94850,
,,,1464.84268, -74.94850,
,,,1469.77481, -74.94850,
,,,1474.70694, -74.94850,
,,,1479.63907, -68.54850,
,,,1484.57120, -74.94850,
,,,1489.50333, -74.94850,
,,,1494.43546, -74.94850,
,,,1499.36759, -72.54850,
,,,1504.29972, -74.94850,
,,,1509.23185, -74.94850,
,,,1514.16398, -74.94850,
,,,1519.09611, -74.94850,
,,,1524.02824, -74.94850,
,,,1528.96037, -74.94850,
,,,1533.89250, -69.34850,
,,,1538.82463, -69.34850,
,,,1543.75676, -69.34850,
,,,1548.68889, -72.54850,
,,,1553.62102, -72.54850,
,,,1558.55315, -72.54850,
,,,1563.48528, -74.94850,
,,,1568.41741, -74.94850,
,,,1573.34954, -74.94850,
,,,1578.28167, -74.94850,
,,,1583.21380, -74.94850,
,,,1588.14593, -74.94850,
,,,1593.07806, -74.94850,
,,,1598.01019, -74.94850,
,,,1602.94232, -74.94850,
,,,1607.87445, -74.94850,
,,,1612.80658, -74.94850,
,,,1617.73871, -72.54850,
,,,1622.67084, -74.94850,
,,,1627.60297, -74.94850,
,,,1632.53510, -74.94850,
,,,1637.46723, -74.94850,
,,,1642.39936, -74.94850,
,,,1647.33149, -74.94850,
,,,1652.26362, -74.94850,
,,,1657.19575, -74.94850,
,,,1662.12788, -74.94850,
,,,1667.06001, -74.94850,
,,,1671.99214, -74.94850,
,,,1676.92427, -74.94850,
,,,1681.85640, -74.94850,
,,,1686.78853, -72.54850,
,,,1691.72066, -72.54850,
,,,1696.65279, -72.54850,
,,,1701.58492, -74.94850,
,,,1706.51705, -74.94850,
,,,1711.44918, -74.94850,
,,,1716.38131, -74.94850,
,,,1721.31344, -74.94850,
,,,1726.24557, -74.94850,
,,,1731.17770, -74.94850,
,,,1736.10983, -74.94850,
,,,1741.04196, -74.94850,
,,,1745.97409, -74.94850,
,,,1750.90622, -74.94850,
,,,1755.83835, -68.54850,
,,,1760.77048, -74.94850,
,,,1765.70261, -74.94850,
,,,1770.63474, -69.34850,
,,,1775.56687, -68.54850,
,,,1780.49900, -74.94850,
,,,1785.43113, -72.54850,
,,,1790.36326, -74.94850,
,,,1795.29539, -74.94850,
,,,1800.22752, -69.34850,
,,,1805.15965, -68.54850,
,,,1810.09178, -74.94850,
,,,1815.02391, -72.54850,
,,,1819.95604, -74.94850,
,,,1824.88817, -74.94850,
,,,1829.82030, -74.94850,
,,,1834.75243, -74.94850,
,,,1839.68456, -74.94850,
,,,1844.61669, -74.94850,
,,,1849.54882, -74.94850,
,,,1854.48095, -74.94850,
,,,1859.41308, -74.94850,
,,,1864.34521, -74.94850,
,,,1869.27734, -74.94850,
,,,1874.20947, -74.94850,
,,,1879.14160, -74.94850,
,,,1884.07373, -74.94850,
,,,1889.00586, -74.94850,
,,,1893.93799, -74.94850,
,,,1898.87012, -74.94850,
,,,1903.80225, -74.94850,
,,,1908.73438, -74.94850,
,,,1913.66651, -74.94850,
,,,1918.59864, -74.94850,
,,,1923.53077, -74.94850,
,,,1928.46290, -74.94850,
,,,1933.39503, -74.94850,
,,,1938.32716, -72.54850,
,,,1943.25929, -74.94850,
,,,1948.19142, -72.54850,
,,,1953.12355, -72.54850,
,,,1958.05568, -72.54850,
,,,1962.98781, -74.94850,
,,,1967.91994, -74.94850,
,,,1972.85207, -74.94850,
,,,1977.78420, -72.54850,
,,,1982.71633, -74.94850,
,,,1987.64846, -64.14850,
,,,1992.58059, -51.34850,
,,,1997.51272, -48.94850,
,,,2002.44485, -48.94850,
,,,2007.37698, -51.34850,
,,,2012.30911, -65.34850,
,,,2017.24124, -72.54850,
,,,2022.17337, -72.54850,
,,,2027.10550, -74.94850,
,,,2032.03763, -74.94850,
,,,2036.96976, -74.94850,
,,,2041.90189, -68.54850,
,,,2046.83402, -72.54850,
,,,2051.76615, -74.94850,
,,,2056.69828, -74.94850,
,,,2061.63041, -74.94850,
,,,2066.56254, -72.54850,
,,,2071.49467, -74.94850,
,,,2076.42680, -74.94850,
,,,2081.35893, -74.94850,
,,,2086.29106, -74.94850,
,,,2091.22319, -72.54850,
,,,2096.15532, -74.94850,
,,,2101.08745, -74.94850,
,,,2106.01958, -74.94850,
,,,2110.95171, -74.94850,
,,,2115.88384, -74.94850,
,,,2120.81597, -72.54850,
,,,2125.74810, -72.54850,
,,,2130.68023, -72.54850,
,,,2135.61236, -68.54850,
,,,2140.54449, -69.34850,
,,,2145.47662, -69.34850,
,,,2150.40875, -69.34850,
,,,2155.34088, -69.34850,
,,,2160.27301, -74.94850,
,,,2165.20514, -72.54850,
,,,2170.13727, -74.94850,
,,,2175.06940, -74.94850,
,,,2180.00153, -74.94850,
,,,2184.93366, -74.94850,
,,,2189.86579, -72.54850,
,,,2194.79792, -74.94850,
,,,2199.73005, -74.94850,
,,,2204.66218, -74.94850,
,,,2209.59431, -74.94850,
,,,2214.52644, -74.94850,
,,,2219.45857, -74.94850,
,,,2224.39070, -74.94850,
,,,2229.32283, -74.94850,
,,,2234.25496, -74.94850,
,,,2239.18709, -74.94850,
,,,2244.11922, -72.54850,
,,,2249.05135, -72.54850,
,,,2253.98348, -74.94850,
,,,2258.91561, -72.54850,
,,,2263.84774, -74.94850,
,,,2268.77987, -72.54850,
,,,2273.71200, -68.54850,
,,,2278.64413, -69.34850,
,,,2283.57626, -72.54850,
,,,2288.50839, -72.54850,
,,,2293.44052, -74.94850,
,,,2298.37265, -74.94850,
,,,2303.30478, -74.94850,
,,,2308.23691, -74.94850,
,,,2313.16904, -74.94850,
,,,2318.10117, -74.94850,
,,,2323.03330, -74.94850,
,,,2327.96543, -74.94850,
,,,2332.89756, -72.54850,
,,,2337.82969, -74.94850,
,,,2342.76182, -74.94850,
,,,2347.69395, -74.94850,
,,,2352.62608, -74.94850,
,,,2357.55821, -74.94850,
,,,2362.49034, -74.94850,
,,,2367.42247, -74.94850,
,,,2372.35460, -74.94850,
,,,2377.28673, -74.94850,
,,,2382.21886, -74.94850,
,,,2387.15099, -74.94850,
,,,2392.08312, -74.94850,
,,,2397.01525, -74.94850,
,,,2401.94738, -74.94850,
,,,2406.87951, -74.94850,
,,,2411.81164, -74.94850,
,,,2416.74377, -74.94850,
,,,2421.67590, -74.94850,
,,,2426.60803, -74.94850,
,,,2431.54016, -74.94850,
,,,2436.47229, -74.94850,
,,,2441.40442, -74.94850,
,,,2446.33655, -74.94850,
,,,2451.26868, -74.94850,
,,,2456.20081, -69.34850,
,,,2461.13294, -69.34850,
,,,2466.06507, -72.54850,
,,,2470.99720, -74.94850,
,,,2475.92933, -74.94850,
,,,2480.86146, -74.94850,
,,,2485.79359, -74.94850,
,,,2490.72572, -74.94850,
,,,2495.65785, -74.94850,
,,,2500.58998, -74.94850,
,,,2505.52211, -72.54850,
,,,2510.45424, -74.94850,
,,,2515.38637, -74.94850,
,,,2520.31850, -74.94850,
,,,2525.25063, -68.54850,
,,,2530.18276, -74.94850,
,,,2535.11489, -72.54850,
,,,2540.04702, -74.94850,
,,,2544.97915, -74.94850,
,,,2549.91128, -74.94850,
,,,2554.84341, -72.54850,
,,,2559.77554, -74.94850,
,,,2564.70767, -74.94850,
,,,2569.63980, -74.94850,
,,,2574.57193, -74.94850,
,,,2579.50406, -74.94850,
,,,2584.43619, -74.94850,
,,,2589.36832, -74.94850,
,,,2594.30045, -74.94850,
,,,2599.23258, -72.54850,
,,,2604.16471, -74.94850,
,,,2609.09684, -72.54850,
,,,2614.02897, -74.94850,
,,,2618.96110, -74.94850,
,,,2623.89323, -74.94850,
,,,2628.82536, -74.94850,
,,,2633.75749, -72.54850,
,,,2638.68962, -74.94850,
,,,2643.62175, -74.94850,
,,,2648.55388, -74.94850,
,,,2653.48601, -74.94850,
,,,2658.41814, -74.94850,
,,,2663.35027, -74.94850,
,,,2668.28240, -72.54850,
,,,2673.21453, -72.54850,
,,,2678.14666, -74.94850,
,,,2683.07879, -74.94850,
,,,2688.01092, -74.94850,
,,,2692.94305, -74.94850,
,,,2697.87518, -74.94850,
,,,2702.80731, -72.54850,
,,,2707.73944, -68.54850,
,,,2712.67157, -74.94850,
,,,2717.60370, -72.54850,
,,,2722.53583, -72.54850,
,,,2727.46796, -69.34850,
,,,2732.40009, -74.94850,
,,,2737.33222, -74.94850,
,,,2742.26435, -74.94850,
,,,2747.19648, -74.94850,
,,,2752.12861, -74.94850,
,,,2757.06074, -74.94850,
,,,2761.99287, -74.94850,
,,,2766.92500, -74.94850,
,,,2771.85713, -74.94850,
,,,2776.78926, -74.94850,
,,,2781.72139, -74.94850,
,,,2786.65352, -72.54850,
,,,2791.58565, -74.94850,
,,,2796.51778, -74.94850,
,,,2801.44991, -74.94850,
,,,2806.38204, -72.54850,
,,,2811.31417, -74.94850,
,,,2816.24630, -74.94850,
,,,2821.17843, -74.94850,
,,,2826.11056, -74.94850,
,,,2831.04269, -72.54850,
,,,2835.97482, -74.94850,
,,,2840.90695, -74.94850,
,,,2845.83908, -74.94850,
,,,2850.77121, -74.94850,
,,,2855.70334, -74.94850,
,,,2860.63547, -74.94850,
,,,2865.56760, -74.94850,
,,,2870.49973, -74.94850,
,,,2875.43186, -74.94850,
,,,2880.36399, -74.94850,
,,,2885.29612, -74.94850,
,,,2890.22825, -74.94850,
,,,2895.16038, -74.94850,
,,,2900.09251, -72.54850,
,,,2905.02464, -72.54850,
,,,2909.95677, -74.94850,
,,,2914.88890, -72.54850,
,,,2919.82103, -74.94850,
,,,2924.75316, -74.94850,
,,,2929.68529, -74.94850,
,,,2934.61742, -72.54850,
,,,2939.54955, -74.94850,
,,,2944.48168, -72.54850,
,,,2949.41381, -72.54850,
,,,2954.34594, -69.34850,
,,,2959.27807, -74.94850,
,,,2964.21020, -69.34850,
,,,2969.14233, -74.94850,
,,,2974.07446, -74.94850,
,,,2979.00659, -72.54850,
,,,2983.93872, -74.94850,
,,,2988.87085, -74.94850,
,,,2993.80298, -74.94850,
,,,2998.73511, -69.34850,
,,,3003.66724, -69.34850,
,,,3008.59937, -72.54850,
,,,3013.53150, -74.94850,
,,,3018.46363, -74.94850,
,,,3023.39576, -74.94850,
,,,3028.32789, -74.94850,
,,,3033.26002, -74.94850,
,,,3038.19215, -74.94850,
,,,3043.12428, -74.94850,
,,,3048.05641, -74.94850,
,,,3052.98854, -74.94850,
,,,3057.92067, -74.94850,
,,,3062.85280, -72.54850,
,,,3067.78493, -74.94850,
,,,3072.71706, -74.94850,
,,,3077.64919, -74.94850,
,,,3082.58132, -74.94850,
,,,3087.51345, -74.94850,
,,,3092.44558, -72.54850,
,,,3097.37771, -72.54850,
,,,3102.30984, -72.54850,
,,,3107.24197, -72.54850,
,,,3112.17410, -74.94850,
,,,3117.10623, -74.94850,
,,,3122.03836, -74.94850,
,,,3126.97049, -74.94850,
,,,3131.90262, -74.94850,
,,,3136.83475, -74.94850,
,,,3141.76688, -74.94850,
,,,3146.69901, -74.94850,
,,,3151.63114, -74.94850,
,,,3156.56327, -74.94850,
,,,3161.49540, -74.94850,
,,,3166.42753, -72.54850,
,,,3171.35966, -74.94850,
,,,3176.29179, -74.94850,
,,,3181.22392, -74.94850,
,,,3186.15605, -72.54850,
,,,3191.08818, -74.94850,
,,,3196.02031, -74.94850,
,,,3200.95244, -74.94850,
,,,3205.88457, -74.94850,
,,,3210.81670, -74.94850,
,,,3215.74883, -72.54850,
,,,3220.68096, -74.94850,
,,,3225.61309, -74.94850,
,,,3230.54522, -74.94850,
,,,3235.47735, -74.94850,
,,,3240.40948, -74.94850,
,,,3245.34161, -74.94850,
,,,3250.27374, -74.94850,
,,,3255.20587, -74.94850,
,,,3260.13800, -72.54850,
,,,3265.07013, -74.94850,
,,,3270.00226, -74.94850,
,,,3274.93439, -72.54850,
,,,3279.86652, -74.94850,
,,,3284.79865, -74.94850,
,,,3289.73078, -74.94850,
,,,3294.66291, -74.94850,
,,,3299.59504, -74.94850,
,,,3304.52717, -72.54850,
,,,3309.45930, -72.54850,
,,,3314.39143, -74.94850,
,,,3319.32356, -74.94850,
,,,3324.25569, -74.94850,
,,,3329.18782, -74.94850,
,,,3334.11995, -72.54850,
,,,3339.05208, -74.94850,
,,,3343.98421, -74.94850,
,,,3348.91634, -74.94850,
,,,3353.84847, -74.94850,
,,,3358.78060, -74.94850,
,,,3363.71273, -74.94850,
,,,3368.64486, -74.94850,
,,,3373.57699, -74.94850,
,,,3378.50912, -74.94850,
,,,3383.44125, -74.94850,
,,,3388.37338, -74.94850,
,,,3393.30551, -74.94850,
,,,3398.23764, -74.94850,
,,,3403.16977, -74.94850,
,,,3408.10190, -74.94850,
,,,3413.03403, -74.94850,
,,,3417.96616, -74.94850,
,,,3422.89829, -74.94850,
,,,3427.83042, -74.94850,
,,,3432.76255, -74.94850,
,,,3437.69468, -74.94850,
,,,3442.62681, -74.94850,
,,,3447.55894, -74.94850,
,,,3452.49107, -74.94850,
,,,3457.42320, -74.94850,
,,,3462.35533, -72.54850,
,,,3467.28746, -68.54850,
,,,3472.21959, -74.94850,
,,,3477.15172, -74.94850,
,,,3482.08385, -72.54850,
,,,3487.01598, -74.94850,
,,,3491.94811, -74.94850,
,,,3496.88024, -74.94850,
,,,3501.81237, -74.94850,
,,,3506.74450, -72.54850,
,,,3511.67663, -74.94850,
,,,3516.60876, -72.54850,
,,,3521.54089, -74.94850,
,,,3526.47302, -74.94850,
,,,3531.40515, -74.94850,
,,,3536.33728, -72.54850,
,,,3541.26941, -74.94850,
,,,3546.20154, -74.94850,
,,,3551.13367, -69.34850,
,,,3556.06580, -74.94850,
,,,3560.99793, -74.94850,
,,,3565.93006, -74.94850,
,,,3570.86219, -74.94850,
,,,3575.79432, -74.94850,
,,,3580.72645, -74.94850,
,,,3585.65858, -74.94850,
,,,3590.59071, -74.94850,
,,,3595.52284, -74.94850,
,,,3600.45497, -74.94850,
,,,3605.38710, -74.94850,
,,,3610.31923, -74.94850,
,,,3615.25136, -74.94850,
,,,3620.18349, -74.94850,
,,,3625.11562, -74.94850,
,,,3630.04775, -74.94850,
,,,3634.97988, -74.94850,
,,,3639.91201, -74.94850,
,,,3644.84414, -69.34850,
,,,3649.77627, -68.54850,
,,,3654.70840, -72.54850,
,,,3659.64053, -74.94850,
,,,3664.57266, -74.94850,
,,,3669.50479, -74.94850,
,,,3674.43692, -74.94850,
,,,3679.36905, -74.94850,
,,,3684.30118, -74.94850,
,,,3689.23331, -72.54850,
,,,3694.16544, -72.54850,
,,,3699.09757, -68.54850,
,,,3704.02970, -74.94850,
,,,3708.96183, -74.94850,
,,,3713.89396, -74.94850,
,,,3718.82609, -72.54850,
,,,3723.75822, -72.54850,
,,,3728.69035, -74.94850,
,,,3733.62248, -69.34850,
,,,3738.55461, -72.54850,
