Lab_5/THE LAST EXP/ALL0003/F0003CH1.CSV

Record Length,2.500000e+03,,   0.000000186000,   0.24000,
Sample Interval,2.000000e-10,,   0.000000186200,   0.28000,
Trigger Point,-9.300000000000e+02,,   0.000000186400,   0.28000,
,,,   0.000000186600,   0.28000,
,,,   0.000000186800,   0.32000,
,,,   0.000000187000,   0.32000,
Source,CH1,,   0.000000187200,   0.36000,
Vertical Units,V,,   0.000000187400,   0.36000,
Vertical Scale,1.000000e+00,,   0.000000187600,   0.36000,
Vertical Offset,-2.560000e+00,,   0.000000187800,   0.36000,
Horizontal Units,s,,   0.000000188000,   0.36000,
Horizontal Scale,5.000000e-08,,   0.000000188200,   0.40000,
Pt Fmt,Y,,   0.000000188400,   0.40000,
Yzero,0.000000e+00,,   0.000000188600,   0.40000,
Probe Atten,1.000000e+01,,   0.000000188800,   0.40000,
Model Number,TBS1072B-EDU,,   0.000000189000,   0.40000,
Serial Number,C031464,,   0.000000189200,   0.44000,
Firmware Version,FV:v4.06,,   0.000000189400,   0.44000,
,,,0.000000189600,   0.44000,
,,,0.000000189800,   0.48000,
,,,0.000000190000,   0.48000,
,,,0.000000190200,   0.52000,
,,,0.000000190400,   0.52000,
,,,0.000000190600,   0.56000,
,,,0.000000190800,   0.56000,
,,,0.000000191000,   0.60000,
,,,0.000000191200,   0.64000,
,,,0.000000191400,   0.64000,
,,,0.000000191600,   0.68000,
,,,0.000000191800,   0.68000,
,,,0.000000192000,   0.72000,
,,,0.000000192200,   0.76000,
,,,0.000000192400,   0.76000,
,,,0.000000192600,   0.80000,
,,,0.000000192800,   0.80000,
,,,0.000000193000,   0.80000,
,,,0.000000193200,   0.84000,
,,,0.000000193400,   0.84000,
,,,0.000000193600,   0.84000,
,,,0.000000193800,   0.84000,
,,,0.000000194000,   0.84000,
,,,0.000000194200,   0.88000,
,,,0.000000194400,   0.88000,
,,,0.000000194600,   0.92000,
,,,0.000000194800,   0.92000,
,,,0.000000195000,   0.96000,
,,,0.000000195200,   1.00000,
,,,0.000000195400,   1.00000,
,,,0.000000195600,   1.00000,
,,,0.000000195800,   1.04000,
,,,0.000000196000,   1.04000,
,,,0.000000196200,   1.08000,
,,,0.000000196400,   1.08000,
,,,0.000000196600,   1.08000,
,,,0.000000196800,   1.12000,
,,,0.000000197000,   1.12000,
,,,0.000000197200,   1.16000,
,,,0.000000197400,   1.16000,
,,,0.000000197600,   1.20000,
,,,0.000000197800,   1.24000,
,,,0.000000198000,   1.28000,
,,,0.000000198200,   1.32000,
,,,0.000000198400,   1.32000,
,,,0.000000198600,   1.36000,
,,,0.000000198800,   1.36000,
,,,0.000000199000,   1.36000,
,,,0.000000199200,   1.40000,
,,,0.000000199400,   1.40000,
,,,0.000000199600,   1.40000,
,,,0.000000199800,   1.44000,
,,,0.000000200000,   1.44000,
,,,0.000000200200,   1.48000,
,,,0.000000200400,   1.48000,
,,,0.000000200600,   1.52000,
,,,0.000000200800,   1.52000,
,,,0.000000201000,   1.56000,
,,,0.000000201200,   1.60000,
,,,0.000000201400,   1.60000,
,,,0.000000201600,   1.64000,
,,,0.000000201800,   1.64000,
,,,0.000000202000,   1.68000,
,,,0.000000202200,   1.72000,
,,,0.000000202400,   1.72000,
,,,0.000000202600,   1.76000,
,,,0.000000202800,   1.76000,
,,,0.000000203000,   1.80000,
,,,0.000000203200,   1.84000,
,,,0.000000203400,   1.84000,
,,,0.000000203600,   1.84000,
,,,0.000000203800,   1.88000,
,,,0.000000204000,   1.88000,
,,,0.000000204200,   1.92000,
,,,0.000000204400,   1.92000,
,,,0.000000204600,   1.96000,
,,,0.000000204800,   1.96000,
,,,0.000000205000,   2.00000,
,,,0.000000205200,   2.04000,
,,,0.000000205400,   2.04000,
,,,0.000000205600,   2.08000,
,,,0.000000205800,   2.08000,
,,,0.000000206000,   2.12000,
,,,0.000000206200,   2.16000,
,,,0.000000206400,   2.16000,
,,,0.000000206600,   2.20000,
,,,0.000000206800,   2.20000,
,,,0.000000207000,   2.24000,
,,,0.000000207200,   2.28000,
,,,0.000000207400,   2.28000,
,,,0.000000207600,   2.32000,
,,,0.000000207800,   2.36000,
,,,0.000000208000,   2.40000,
,,,0.000000208200,   2.44000,
,,,0.000000208400,   2.44000,
,,,0.000000208600,   2.48000,
,,,0.000000208800,   2.48000,
,,,0.000000209000,   2.48000,
,,,0.000000209200,   2.52000,
,,,0.000000209400,   2.52000,
,,,0.000000209600,   2.52000,
,,,0.000000209800,   2.52000,
,,,0.000000210000,   2.52000,
,,,0.000000210200,   2.56000,
,,,0.000000210400,   2.56000,
,,,0.000000210600,   2.60000,
,,,0.000000210800,   2.60000,
,,,0.000000211000,   2.64000,
,,,0.000000211200,   2.68000,
,,,0.000000211400,   2.68000,
,,,0.000000211600,   2.72000,
,,,0.000000211800,   2.72000,
,,,0.000000212000,   2.76000,
,,,0.000000212200,   2.80000,
,,,0.000000212400,   2.80000,
,,,0.000000212600,   2.80000,
,,,0.000000212800,   2.84000,
,,,0.000000213000,   2.84000,
,,,0.000000213200,   2.88000,
,,,0.000000213400,   2.88000,
,,,0.000000213600,   2.92000,
,,,0.000000213800,   2.92000,
,,,0.000000214000,   2.96000,
,,,0.000000214200,   3.00000,
,,,0.000000214400,   3.00000,
,,,0.000000214600,   3.00000,
,,,0.000000214800,   3.04000,
,,,0.000000215000,   3.04000,
,,,0.000000215200,   3.08000,
,,,0.000000215400,   3.08000,
,,,0.000000215600,   3.08000,
,,,0.000000215800,   3.12000,
,,,0.000000216000,   3.12000,
,,,0.000000216200,   3.16000,
,,,0.000000216400,   3.16000,
,,,0.000000216600,   3.16000,
,,,0.000000216800,   3.20000,
,,,0.000000217000,   3.20000,
,,,0.000000217200,   3.24000,
,,,0.000000217400,   3.24000,
,,,0.000000217600,   3.28000,
,,,0.000000217800,   3.28000,
,,,0.000000218000,   3.32000,
,,,0.000000218200,   3.36000,
,,,0.000000218400,   3.36000,
,,,0.000000218600,   3.40000,
,,,0.000000218800,   3.40000,
,,,0.000000219000,   3.40000,
,,,0.000000219200,   3.44000,
,,,0.000000219400,   3.44000,
,,,0.000000219600,   3.44000,
,,,0.000000219800,   3.44000,
,,,0.000000220000,   3.44000,
,,,0.000000220200,   3.48000,
,,,0.000000220400,   3.48000,
,,,0.000000220600,   3.48000,
,,,0.000000220800,   3.52000,
,,,0.000000221000,   3.52000,
,,,0.000000221200,   3.56000,
,,,0.000000221400,   3.56000,
,,,0.000000221600,   3.56000,
,,,0.000000221800,   3.60000,
,,,0.000000222000,   3.60000,
,,,0.000000222200,   3.64000,
,,,0.000000222400,   3.64000,
,,,0.000000222600,   3.64000,
,,,0.000000222800,   3.68000,
,,,0.000000223000,   3.68000,
,,,0.000000223200,   3.72000,
,,,0.000000223400,   3.72000,
,,,0.000000223600,   3.72000,
,,,0.000000223800,   3.72000,
,,,0.000000224000,   3.72000,
,,,0.000000224200,   3.76000,
,,,0.000000224400,   3.76000,
,,,0.000000224600,   3.80000,
,,,0.000000224800,   3.80000,
,,,0.000000225000,   3.84000,
,,,0.000000225200,   3.88000,
,,,0.000000225400,   3.88000,
,,,0.000000225600,   3.92000,
,,,0.000000225800,   3.92000,
,,,0.000000226000,   3.92000,
,,,0.000000226200,   3.96000,
,,,0.000000226400,   3.96000,
,,,0.000000226600,   3.96000,
,,,0.000000226800,   3.96000,
,,,0.000000227000,   3.96000,
,,,0.000000227200,   3.96000,
,,,0.000000227400,   3.96000,
,,,0.000000227600,   3.92000,
,,,0.000000227800,   3.92000,
,,,0.000000228000,   3.96000,
,,,0.000000228200,   3.96000,
,,,0.000000228400,   3.96000,
,,,0.000000228600,   3.96000,
,,,0.000000228800,   4.00000,
,,,0.000000229000,   4.00000,
,,,0.000000229200,   4.04000,
,,,0.000000229400,   4.04000,
,,,0.000000229600,   4.08000,
,,,0.000000229800,   4.08000,
,,,0.000000230000,   4.08000,
,,,0.000000230200,   4.12000,
,,,0.000000230400,   4.12000,
,,,0.000000230600,   4.12000,
,,,0.000000230800,   4.12000,
,,,0.000000231000,   4.12000,
,,,0.000000231200,   4.12000,
,,,0.000000231400,   4.12000,
,,,0.000000231600,   4.12000,
,,,0.000000231800,   4.16000,
,,,0.000000232000,   4.16000,
,,,0.000000232200,   4.20000,
,,,0.000000232400,   4.20000,
,,,0.000000232600,   4.24000,
,,,0.000000232800,   4.24000,
,,,0.000000233000,   4.24000,
,,,0.000000233200,   4.28000,
,,,0.000000233400,   4.28000,
,,,0.000000233600,   4.28000,
,,,0.000000233800,   4.28000,
,,,0.000000234000,   4.28000,
,,,0.000000234200,   4.28000,
,,,0.000000234400,   4.28000,
,,,0.000000234600,   4.24000,
,,,0.000000234800,   4.24000,
,,,0.000000235000,   4.28000,
,,,0.000000235200,   4.28000,
,,,0.000000235400,   4.28000,
,,,0.000000235600,   4.28000,
,,,0.000000235800,   4.32000,
,,,0.000000236000,   4.32000,
,,,0.000000236200,   4.36000,
,,,0.000000236400,   4.36000,
,,,0.000000236600,   4.36000,
,,,0.000000236800,   4.40000,
,,,0.000000237000,   4.40000,
,,,0.000000237200,   4.44000,
,,,0.000000237400,   4.44000,
,,,0.000000237600,   4.44000,
,,,0.000000237800,   4.44000,
,,,0.000000238000,   4.48000,
,,,0.000000238200,   4.48000,
,,,0.000000238400,   4.48000,
,,,0.000000238600,   4.48000,
,,,0.000000238800,   4.48000,
,,,0.000000239000,   4.48000,
,,,0.000000239200,   4.48000,
,,,0.000000239400,   4.44000,
,,,0.000000239600,   4.44000,
,,,0.000000239800,   4.44000,
,,,0.000000240000,   4.44000,
,,,0.000000240200,   4.44000,
,,,0.000000240400,   4.44000,
,,,0.000000240600,   4.44000,
,,,0.000000240800,   4.44000,
,,,0.000000241000,   4.44000,
,,,0.000000241200,   4.48000,
,,,0.000000241400,   4.48000,
,,,0.000000241600,   4.48000,
,,,0.000000241800,   4.48000,
,,,0.000000242000,   4.48000,
,,,0.000000242200,   4.52000,
,,,0.000000242400,   4.52000,
,,,0.000000242600,   4.52000,
,,,0.000000242800,   4.52000,
,,,0.000000243000,   4.52000,
,,,0.000000243200,   4.52000,
,,,0.000000243400,   4.52000,
,,,0.000000243600,   4.52000,
,,,0.000000243800,   4.52000,
,,,0.000000244000,   4.52000,
,,,0.000000244200,   4.56000,
,,,0.000000244400,   4.56000,
,,,0.000000244600,   4.56000,
,,,0.000000244800,   4.56000,
,,,0.000000245000,   4.56000,
,,,0.000000245200,   4.56000,
,,,0.000000245400,   4.56000,
,,,0.000000245600,   4.56000,
,,,0.000000245800,   4.56000,
,,,0.000000246000,   4.56000,
,,,0.000000246200,   4.56000,
,,,0.000000246400,   4.56000,
,,,0.000000246600,   4.56000,
,,,0.000000246800,   4.56000,
,,,0.000000247000,   4.56000,
,,,0.000000247200,   4.56000,
,,,0.000000247400,   4.56000,
,,,0.000000247600,   4.56000,
,,,0.000000247800,   4.56000,
,,,0.000000248000,   4.56000,
,,,0.000000248200,   4.60000,
,,,0.000000248400,   4.60000,
,,,0.000000248600,   4.60000,
,,,0.000000248800,   4.60000,
,,,0.000000249000,   4.60000,
,,,0.000000249200,   4.60000,
,,,0.000000249400,   4.60000,
,,,0.000000249600,   4.60000,
,,,0.000000249800,   4.60000,
,,,0.000000250000,   4.60000,
,,,0.000000250200,   4.64000,
,,,0.000000250400,   4.60000,
,,,0.000000250600,   4.60000,
,,,0.000000250800,   4.60000,
,,,0.000000251000,   4.60000,
,,,0.000000251200,   4.60000,
,,,0.000000251400,   4.60000,
,,,0.000000251600,   4.60000,
,,,0.000000251800,   4.60000,
,,,0.000000252000,   4.60000,
,,,0.000000252200,   4.64000,
,,,0.000000252400,   4.64000,
,,,0.000000252600,   4.64000,
,,,0.000000252800,   4.64000,
,,,0.000000253000,   4.64000,
,,,0.000000253200,   4.64000,
,,,0.000000253400,   4.64000,
,,,0.000000253600,   4.64000,
,,,0.000000253800,   4.64000,
,,,0.000000254000,   4.64000,
,,,0.000000254200,   4.68000,
,,,0.000000254400,   4.64000,
,,,0.000000254600,   4.64000,
,,,0.000000254800,   4.64000,
,,,0.000000255000,   4.64000,
,,,0.000000255200,   4.64000,
,,,0.000000255400,   4.64000,
,,,0.000000255600,   4.64000,
,,,0.000000255800,   4.64000,
,,,0.000000256000,   4.64000,
,,,0.000000256200,   4.68000,
,,,0.000000256400,   4.68000,
,,,0.000000256600,   4.68000,
,,,0.000000256800,   4.68000,
,,,0.000000257000,   4.68000,
,,,0.000000257200,   4.68000,
,,,0.000000257400,   4.68000,
,,,0.000000257600,   4.68000,
,,,0.000000257800,   4.68000,
,,,0.000000258000,   4.68000,
,,,0.000000258200,   4.72000,
,,,0.000000258400,   4.68000,
,,,0.000000258600,   4.68000,
,,,0.000000258800,   4.68000,
,,,0.000000259000,   4.68000,
,,,0.000000259200,   4.68000,
,,,0.000000259400,   4.68000,
,,,0.000000259600,   4.68000,
,,,0.000000259800,   4.68000,
,,,0.000000260000,   4.68000,
,,,0.000000260200,   4.68000,
,,,0.000000260400,   4.68000,
,,,0.000000260600,   4.64000,
,,,0.000000260800,   4.64000,
,,,0.000000261000,   4.68000,
,,,0.000000261200,   4.68000,
,,,0.000000261400,   4.68000,
,,,0.000000261600,   4.68000,
,,,0.000000261800,   4.72000,
,,,0.000000262000,   4.72000,
,,,0.000000262200,   4.76000,
,,,0.000000262400,   4.76000,
,,,0.000000262600,   4.76000,
,,,0.000000262800,   4.80000,
,,,0.000000263000,   4.80000,
,,,0.000000263200,   4.80000,
,,,0.000000263400,   4.76000,
,,,0.000000263600,   4.76000,
,,,0.000000263800,   4.72000,
,,,0.000000264000,   4.72000,
,,,0.000000264200,   4.72000,
,,,0.000000264400,   4.72000,
,,,0.000000264600,   4.72000,
,,,0.000000264800,   4.72000,
,,,0.000000265000,   4.72000,
,,,0.000000265200,   4.76000,
,,,0.000000265400,   4.76000,
,,,0.000000265600,   4.76000,
,,,0.000000265800,   4.76000,
,,,0.000000266000,   4.76000,
,,,0.000000266200,   4.76000,
,,,0.000000266400,   4.76000,
,,,0.000000266600,   4.76000,
,,,0.000000266800,   4.76000,
,,,0.000000267000,   4.76000,
,,,0.000000267200,   4.80000,
,,,0.000000267400,   4.76000,
,,,0.000000267600,   4.76000,
,,,0.000000267800,   4.76000,
,,,0.000000268000,   4.76000,
,,,0.000000268200,   4.76000,
,,,0.000000268400,   4.76000,
,,,0.000000268600,   4.76000,
,,,0.000000268800,   4.76000,
,,,0.000000269000,   4.76000,
,,,0.000000269200,   4.80000,
,,,0.000000269400,   4.80000,
,,,0.000000269600,   4.80000,
,,,0.000000269800,   4.84000,
,,,0.000000270000,   4.84000,
,,,0.000000270200,   4.88000,
,,,0.000000270400,   4.88000,
,,,0.000000270600,   4.88000,
,,,0.000000270800,   4.88000,
,,,0.000000271000,   4.88000,
,,,0.000000271200,   4.88000,
,,,0.000000271400,   4.88000,
,,,0.000000271600,   4.88000,
,,,0.000000271800,   4.88000,
,,,0.000000272000,   4.88000,
,,,0.000000272200,   4.88000,
,,,0.000000272400,   4.88000,
,,,0.000000272600,   4.88000,
,,,0.000000272800,   4.88000,
,,,0.000000273000,   4.88000,
,,,0.000000273200,   4.88000,
,,,0.000000273400,   4.88000,
,,,0.000000273600,   4.88000,
,,,0.000000273800,   4.88000,
,,,0.000000274000,   4.88000,
,,,0.000000274200,   4.92000,
,,,0.000000274400,   4.92000,
,,,0.000000274600,   4.92000,
,,,0.000000274800,   4.92000,
,,,0.000000275000,   4.92000,
,,,0.000000275200,   4.92000,
,,,0.000000275400,   4.92000,
,,,0.000000275600,   4.92000,
,,,0.000000275800,   4.92000,
,,,0.000000276000,   4.92000,
,,,0.000000276200,   4.92000,
,,,0.000000276400,   4.92000,
,,,0.000000276600,   4.92000,
,,,0.000000276800,   4.92000,
,,,0.000000277000,   4.92000,
,,,0.000000277200,   4.92000,
,,,0.000000277400,   4.92000,
,,,0.000000277600,   4.92000,
,,,0.000000277800,   4.92000,
,,,0.000000278000,   4.92000,
,,,0.000000278200,   4.92000,
,,,0.000000278400,   4.92000,
,,,0.000000278600,   4.92000,
,,,0.000000278800,   4.92000,
,,,0.000000279000,   4.92000,
,,,0.000000279200,   4.92000,
,,,0.000000279400,   4.92000,
,,,0.000000279600,   4.92000,
,,,0.000000279800,   4.92000,
,,,0.000000280000,   4.92000,
,,,0.000000280200,   4.92000,
,,,0.000000280400,   4.88000,
,,,0.000000280600,   4.88000,
,,,0.000000280800,   4.88000,
,,,0.000000281000,   4.88000,
,,,0.000000281200,   4.88000,
,,,0.000000281400,   4.88000,
,,,0.000000281600,   4.88000,
,,,0.000000281800,   4.88000,
,,,0.000000282000,   4.88000,
,,,0.000000282200,   4.88000,
,,,0.000000282400,   4.88000,
,,,0.000000282600,   4.88000,
,,,0.000000282800,   4.88000,
,,,0.000000283000,   4.88000,
,,,0.000000283200,   4.88000,
,,,0.000000283400,   4.88000,
,,,0.000000283600,   4.88000,
,,,0.000000283800,   4.88000,
,,,0.000000284000,   4.88000,
,,,0.000000284200,   4.88000,
,,,0.000000284400,   4.84000,
,,,0.000000284600,   4.84000,
,,,0.000000284800,   4.80000,
,,,0.000000285000,   4.80000,
,,,0.000000285200,   4.80000,
,,,0.000000285400,   4.76000,
,,,0.000000285600,   4.76000,
,,,0.000000285800,   4.76000,
,,,0.000000286000,   4.76000,
,,,0.000000286200,   4.76000,
,,,0.000000286400,   4.76000,
,,,0.000000286600,   4.76000,
,,,0.000000286800,   4.76000,
,,,0.000000287000,   4.76000,
,,,0.000000287200,   4.76000,
,,,0.000000287400,   4.76000,
,,,0.000000287600,   4.72000,
,,,0.000000287800,   4.72000,
,,,0.000000288000,   4.72000,
,,,0.000000288200,   4.72000,
,,,0.000000288400,   4.68000,
,,,0.000000288600,   4.64000,
,,,0.000000288800,   4.64000,
,,,0.000000289000,   4.60000,
,,,0.000000289200,   4.60000,
,,,0.000000289400,   4.56000,
,,,0.000000289600,   4.56000,
,,,0.000000289800,   4.52000,
,,,0.000000290000,   4.52000,
,,,0.000000290200,   4.52000,
,,,0.000000290400,   4.52000,
,,,0.000000290600,   4.52000,
,,,0.000000290800,   4.52000,
,,,0.000000291000,   4.52000,
,,,0.000000291200,   4.52000,
,,,0.000000291400,   4.48000,
,,,0.000000291600,   4.48000,
,,,0.000000291800,   4.48000,
,,,0.000000292000,   4.44000,
,,,0.000000292200,   4.44000,
,,,0.000000292400,   4.40000,
,,,0.000000292600,   4.36000,
,,,0.000000292800,   4.36000,
,,,0.000000293000,   4.32000,
,,,0.000000293200,   4.32000,
,,,0.000000293400,   4.28000,
,,,0.000000293600,   4.28000,
,,,0.000000293800,   4.28000,
,,,0.000000294000,   4.28000,
,,,0.000000294200,   4.28000,
,,,0.000000294400,   4.24000,
,,,0.000000294600,   4.24000,
,,,0.000000294800,   4.24000,
,,,0.000000295000,   4.20000,
,,,0.000000295200,   4.20000,
,,,0.000000295400,   4.16000,
,,,0.000000295600,   4.12000,
,,,0.000000295800,   4.08000,
,,,0.000000296000,   4.04000,
,,,0.000000296200,   4.04000,
,,,0.000000296400,   4.00000,
,,,0.000000296600,   3.96000,
,,,0.000000296800,   3.96000,
,,,0.000000297000,   3.92000,
,,,0.000000297200,   3.92000,
,,,0.000000297400,   3.88000,
,,,0.000000297600,   3.88000,
,,,0.000000297800,   3.84000,
,,,0.000000298000,   3.84000,
,,,0.000000298200,   3.84000,
,,,0.000000298400,   3.80000,
,,,0.000000298600,   3.80000,
,,,0.000000298800,   3.80000,
,,,0.000000299000,   3.76000,
,,,0.000000299200,   3.76000,
,,,0.000000299400,   3.72000,
,,,0.000000299600,   3.68000,
,,,0.000000299800,   3.68000,
,,,0.000000300000,   3.64000,
,,,0.000000300200,   3.64000,
,,,0.000000300400,   3.60000,
,,,0.000000300600,   3.56000,
,,,0.000000300800,   3.56000,
,,,0.000000301000,   3.52000,
,,,0.000000301200,   3.52000,
,,,0.000000301400,   3.48000,
,,,0.000000301600,   3.44000,
,,,0.000000301800,   3.44000,
,,,0.000000302000,   3.40000,
,,,0.000000302200,   3.40000,
,,,0.000000302400,   3.36000,
,,,0.000000302600,   3.36000,
,,,0.000000302800,   3.32000,
,,,0.000000303000,   3.32000,
,,,0.000000303200,   3.32000,
,,,0.000000303400,   3.28000,
,,,0.000000303600,   3.24000,
,,,0.000000303800,   3.24000,
,,,0.000000304000,   3.20000,
,,,0.000000304200,   3.20000,
,,,0.000000304400,   3.16000,
,,,0.000000304600,   3.12000,
,,,0.000000304800,   3.12000,
,,,0.000000305000,   3.08000,
,,,0.000000305200,   3.08000,
,,,0.000000305400,   3.04000,
,,,0.000000305600,   3.00000,
,,,0.000000305800,   3.00000,
,,,0.000000306000,   2.96000,
,,,0.000000306200,   2.96000,
,,,0.000000306400,   2.92000,
,,,0.000000306600,   2.88000,
,,,0.000000306800,   2.88000,
,,,0.000000307000,   2.84000,
,,,0.000000307200,   2.84000,
,,,0.000000307400,   2.80000,
,,,0.000000307600,   2.76000,
,,,0.000000307800,   2.72000,
,,,0.000000308000,   2.68000,
,,,0.000000308200,   2.68000,
,,,0.000000308400,   2.64000,
,,,0.000000308600,   2.64000,
,,,0.000000308800,   2.60000,
,,,0.000000309000,   2.60000,
,,,0.000000309200,   2.60000,
,,,0.000000309400,   2.56000,
,,,0.000000309600,   2.52000,
,,,0.000000309800,   2.48000,
,,,0.000000310000,   2.44000,
,,,0.000000310200,   2.44000,
,,,0.000000310400,   2.40000,
,,,0.000000310600,   2.36000,
,,,0.000000310800,   2.36000,
,,,0.000000311000,   2.32000,
,,,0.000000311200,   2.32000,
,,,0.000000311400,   2.28000,
,,,0.000000311600,   2.28000,
,,,0.000000311800,   2.28000,
,,,0.000000312000,   2.28000,
,,,0.000000312200,   2.28000,
,,,0.000000312400,   2.24000,
,,,0.000000312600,   2.20000,
,,,0.000000312800,   2.16000,
,,,0.000000313000,   2.12000,
,,,0.000000313200,   2.08000,
,,,0.000000313400,   2.04000,
,,,0.000000313600,   2.00000,
,,,0.000000313800,   2.00000,
,,,0.000000314000,   1.96000,
,,,0.000000314200,   1.96000,
,,,0.000000314400,   1.92000,
,,,0.000000314600,   1.88000,
,,,0.000000314800,   1.88000,
,,,0.000000315000,   1.84000,
,,,0.000000315200,   1.84000,
,,,0.000000315400,   1.80000,
,,,0.000000315600,   1.76000,
,,,0.000000315800,   1.76000,
,,,0.000000316000,   1.72000,
,,,0.000000316200,   1.72000,
,,,0.000000316400,   1.68000,
,,,0.000000316600,   1.64000,
