Lab_5/THE LAST EXP/ALL0005/F0005CH1.CSV

Record Length,2.500000e+03,,   0.000000298000,   2.88000,
Sample Interval,1.000000e-10,,   0.000000298100,   2.96000,
Trigger Point,-2.980000000000e+03,,   0.000000298200,   2.96000,
,,,   0.000000298300,   3.04000,
,,,   0.000000298400,   3.04000,
,,,   0.000000298500,   3.12000,
Source,CH1,,   0.000000298600,   3.12000,
Vertical Units,V,,   0.000000298700,   3.20000,
Vertical Scale,2.000000e+00,,   0.000000298800,   3.20000,
Vertical Offset,-4.960000e+00,,   0.000000298900,   3.28000,
Horizontal Units,s,,   0.000000299000,   3.28000,
Horizontal Scale,2.500000e-08,,   0.000000299100,   3.28000,
Pt Fmt,Y,,   0.000000299200,   3.36000,
Yzero,0.000000e+00,,   0.000000299300,   3.36000,
Probe Atten,1.000000e+01,,   0.000000299400,   3.44000,
Model Number,TBS1072B-EDU,,   0.000000299500,   3.44000,
Serial Number,C031464,,   0.000000299600,   3.44000,
Firmware Version,FV:v4.06,,   0.000000299700,   3.52000,
,,,0.000000299800,   3.52000,
,,,0.000000299900,   3.60000,
,,,0.000000300000,   3.60000,
,,,0.000000300100,   3.68000,
,,,0.000000300200,   3.68000,
,,,0.000000300300,   3.76000,
,,,0.000000300400,   3.84000,
,,,0.000000300500,   3.84000,
,,,0.000000300600,   3.92000,
,,,0.000000300700,   3.92000,
,,,0.000000300800,   4.00000,
,,,0.000000300900,   4.08000,
,,,0.000000301000,   4.08000,
,,,0.000000301100,   4.16000,
,,,0.000000301200,   4.16000,
,,,0.000000301300,   4.24000,
,,,0.000000301400,   4.24000,
,,,0.000000301500,   4.32000,
,,,0.000000301600,   4.32000,
,,,0.000000301700,   4.40000,
,,,0.000000301800,   4.40000,
,,,0.000000301900,   4.48000,
,,,0.000000302000,   4.48000,
,,,0.000000302100,   4.48000,
,,,0.000000302200,   4.56000,
,,,0.000000302300,   4.56000,
,,,0.000000302400,   4.64000,
,,,0.000000302500,   4.64000,
,,,0.000000302600,   4.64000,
,,,0.000000302700,   4.72000,
,,,0.000000302800,   4.72000,
,,,0.000000302900,   4.80000,
,,,0.000000303000,   4.80000,
,,,0.000000303100,   4.88000,
,,,0.000000303200,   4.88000,
,,,0.000000303300,   4.96000,
,,,0.000000303400,   5.04000,
,,,0.000000303500,   5.04000,
,,,0.000000303600,   5.12000,
,,,0.000000303700,   5.12000,
,,,0.000000303800,   5.20000,
,,,0.000000303900,   5.28000,
,,,0.000000304000,   5.28000,
,,,0.000000304100,   5.36000,
,,,0.000000304200,   5.36000,
,,,0.000000304300,   5.44000,
,,,0.000000304400,   5.44000,
,,,0.000000304500,   5.52000,
,,,0.000000304600,   5.52000,
,,,0.000000304700,   5.60000,
,,,0.000000304800,   5.60000,
,,,0.000000304900,   5.68000,
,,,0.000000305000,   5.68000,
,,,0.000000305100,   5.68000,
,,,0.000000305200,   5.76000,
,,,0.000000305300,   5.76000,
,,,0.000000305400,   5.76000,
,,,0.000000305500,   5.76000,
,,,0.000000305600,   5.84000,
,,,0.000000305700,   5.84000,
,,,0.000000305800,   5.84000,
,,,0.000000305900,   5.92000,
,,,0.000000306000,   5.92000,
,,,0.000000306100,   5.92000,
,,,0.000000306200,   6.00000,
,,,0.000000306300,   6.00000,
,,,0.000000306400,   6.08000,
,,,0.000000306500,   6.08000,
,,,0.000000306600,   6.08000,
,,,0.000000306700,   6.16000,
,,,0.000000306800,   6.16000,
,,,0.000000306900,   6.24000,
,,,0.000000307000,   6.24000,
,,,0.000000307100,   6.24000,
,,,0.000000307200,   6.32000,
,,,0.000000307300,   6.32000,
,,,0.000000307400,   6.40000,
,,,0.000000307500,   6.40000,
,,,0.000000307600,   6.40000,
,,,0.000000307700,   6.48000,
,,,0.000000307800,   6.48000,
,,,0.000000307900,   6.56000,
,,,0.000000308000,   6.56000,
,,,0.000000308100,   6.56000,
,,,0.000000308200,   6.64000,
,,,0.000000308300,   6.64000,
,,,0.000000308400,   6.64000,
,,,0.000000308500,   6.64000,
,,,0.000000308600,   6.72000,
,,,0.000000308700,   6.72000,
,,,0.000000308800,   6.72000,
,,,0.000000308900,   6.80000,
,,,0.000000309000,   6.80000,
,,,0.000000309100,   6.80000,
,,,0.000000309200,   6.88000,
,,,0.000000309300,   6.88000,
,,,0.000000309400,   6.88000,
,,,0.000000309500,   6.88000,
,,,0.000000309600,   6.96000,
,,,0.000000309700,   6.96000,
,,,0.000000309800,   6.96000,
,,,0.000000309900,   7.04000,
,,,0.000000310000,   7.04000,
,,,0.000000310100,   7.04000,
,,,0.000000310200,   7.12000,
,,,0.000000310300,   7.12000,
,,,0.000000310400,   7.12000,
,,,0.000000310500,   7.12000,
,,,0.000000310600,   7.20000,
,,,0.000000310700,   7.20000,
,,,0.000000310800,   7.20000,
,,,0.000000310900,   7.28000,
,,,0.000000311000,   7.28000,
,,,0.000000311100,   7.28000,
,,,0.000000311200,   7.36000,
,,,0.000000311300,   7.36000,
,,,0.000000311400,   7.36000,
,,,0.000000311500,   7.36000,
,,,0.000000311600,   7.44000,
,,,0.000000311700,   7.44000,
,,,0.000000311800,   7.44000,
,,,0.000000311900,   7.52000,
,,,0.000000312000,   7.52000,
,,,0.000000312100,   7.52000,
,,,0.000000312200,   7.60000,
,,,0.000000312300,   7.60000,
,,,0.000000312400,   7.60000,
,,,0.000000312500,   7.60000,
,,,0.000000312600,   7.68000,
,,,0.000000312700,   7.68000,
,,,0.000000312800,   7.68000,
,,,0.000000312900,   7.76000,
,,,0.000000313000,   7.76000,
,,,0.000000313100,   7.76000,
,,,0.000000313200,   7.84000,
,,,0.000000313300,   7.84000,
,,,0.000000313400,   7.84000,
,,,0.000000313500,   7.84000,
,,,0.000000313600,   7.92000,
,,,0.000000313700,   7.92000,
,,,0.000000313800,   7.92000,
,,,0.000000313900,   8.00000,
,,,0.000000314000,   8.00000,
,,,0.000000314100,   8.00000,
,,,0.000000314200,   8.00000,
,,,0.000000314300,   8.00000,
,,,0.000000314400,   8.08000,
,,,0.000000314500,   8.08000,
,,,0.000000314600,   8.08000,
,,,0.000000314700,   8.08000,
,,,0.000000314800,   8.08000,
,,,0.000000314900,   8.16000,
,,,0.000000315000,   8.16000,
,,,0.000000315100,   8.16000,
,,,0.000000315200,   8.16000,
,,,0.000000315300,   8.16000,
,,,0.000000315400,   8.24000,
,,,0.000000315500,   8.24000,
,,,0.000000315600,   8.24000,
,,,0.000000315700,   8.24000,
,,,0.000000315800,   8.24000,
,,,0.000000315900,   8.32000,
,,,0.000000316000,   8.32000,
,,,0.000000316100,   8.32000,
,,,0.000000316200,   8.32000,
,,,0.000000316300,   8.32000,
,,,0.000000316400,   8.40000,
,,,0.000000316500,   8.40000,
,,,0.000000316600,   8.40000,
,,,0.000000316700,   8.40000,
,,,0.000000316800,   8.40000,
,,,0.000000316900,   8.48000,
,,,0.000000317000,   8.48000,
,,,0.000000317100,   8.48000,
,,,0.000000317200,   8.48000,
,,,0.000000317300,   8.48000,
,,,0.000000317400,   8.48000,
,,,0.000000317500,   8.48000,
,,,0.000000317600,   8.48000,
,,,0.000000317700,   8.48000,
,,,0.000000317800,   8.56000,
,,,0.000000317900,   8.56000,
,,,0.000000318000,   8.56000,
,,,0.000000318100,   8.56000,
,,,0.000000318200,   8.56000,
,,,0.000000318300,   8.56000,
,,,0.000000318400,   8.64000,
,,,0.000000318500,   8.64000,
,,,0.000000318600,   8.64000,
,,,0.000000318700,   8.64000,
,,,0.000000318800,   8.64000,
,,,0.000000318900,   8.72000,
,,,0.000000319000,   8.72000,
,,,0.000000319100,   8.72000,
,,,0.000000319200,   8.72000,
,,,0.000000319300,   8.72000,
,,,0.000000319400,   8.72000,
,,,0.000000319500,   8.72000,
,,,0.000000319600,   8.72000,
,,,0.000000319700,   8.80000,
,,,0.000000319800,   8.80000,
,,,0.000000319900,   8.80000,
,,,0.000000320000,   8.80000,
,,,0.000000320100,   8.80000,
,,,0.000000320200,   8.80000,
,,,0.000000320300,   8.80000,
,,,0.000000320400,   8.80000,
,,,0.000000320500,   8.80000,
,,,0.000000320600,   8.80000,
,,,0.000000320700,   8.80000,
,,,0.000000320800,   8.80000,
,,,0.000000320900,   8.80000,
,,,0.000000321000,   8.80000,
,,,0.000000321100,   8.80000,
,,,0.000000321200,   8.80000,
,,,0.000000321300,   8.80000,
,,,0.000000321400,   8.80000,
,,,0.000000321500,   8.88000,
,,,0.000000321600,   8.88000,
,,,0.000000321700,   8.88000,
,,,0.000000321800,   8.88000,
,,,0.000000321900,   8.96000,
,,,0.000000322000,   8.96000,
,,,0.000000322100,   8.96000,
,,,0.000000322200,   8.96000,
,,,0.000000322300,   8.96000,
,,,0.000000322400,   9.04000,
,,,0.000000322500,   9.04000,
,,,0.000000322600,   9.04000,
,,,0.000000322700,   9.04000,
,,,0.000000322800,   9.04000,
,,,0.000000322900,   9.12000,
,,,0.000000323000,   9.12000,
,,,0.000000323100,   9.12000,
,,,0.000000323200,   9.12000,
,,,0.000000323300,   9.12000,
,,,0.000000323400,   9.12000,
,,,0.000000323500,   9.12000,
,,,0.000000323600,   9.12000,
,,,0.000000323700,   9.20000,
,,,0.000000323800,   9.20000,
,,,0.000000323900,   9.20000,
,,,0.000000324000,   9.20000,
,,,0.000000324100,   9.20000,
,,,0.000000324200,   9.20000,
,,,0.000000324300,   9.20000,
,,,0.000000324400,   9.20000,
,,,0.000000324500,   9.20000,
,,,0.000000324600,   9.20000,
,,,0.000000324700,   9.20000,
,,,0.000000324800,   9.20000,
,,,0.000000324900,   9.20000,
,,,0.000000325000,   9.20000,
,,,0.000000325100,   9.20000,
,,,0.000000325200,   9.20000,
,,,0.000000325300,   9.20000,
,,,0.000000325400,   9.20000,
,,,0.000000325500,   9.20000,
,,,0.000000325600,   9.20000,
,,,0.000000325700,   9.20000,
,,,0.000000325800,   9.20000,
,,,0.000000325900,   9.20000,
,,,0.000000326000,   9.20000,
,,,0.000000326100,   9.20000,
,,,0.000000326200,   9.20000,
,,,0.000000326300,   9.20000,
,,,0.000000326400,   9.20000,
,,,0.000000326500,   9.20000,
,,,0.000000326600,   9.20000,
,,,0.000000326700,   9.20000,
,,,0.000000326800,   9.28000,
,,,0.000000326900,   9.28000,
,,,0.000000327000,   9.28000,
,,,0.000000327100,   9.28000,
,,,0.000000327200,   9.28000,
,,,0.000000327300,   9.28000,
,,,0.000000327400,   9.28000,
,,,0.000000327500,   9.28000,
,,,0.000000327600,   9.28000,
,,,0.000000327700,   9.28000,
,,,0.000000327800,   9.36000,
,,,0.000000327900,   9.36000,
,,,0.000000328000,   9.36000,
,,,0.000000328100,   9.36000,
,,,0.000000328200,   9.36000,
,,,0.000000328300,   9.36000,
,,,0.000000328400,   9.36000,
,,,0.000000328500,   9.36000,
,,,0.000000328600,   9.36000,
,,,0.000000328700,   9.36000,
,,,0.000000328800,   9.36000,
,,,0.000000328900,   9.36000,
,,,0.000000329000,   9.36000,
,,,0.000000329100,   9.36000,
,,,0.000000329200,   9.36000,
,,,0.000000329300,   9.36000,
,,,0.000000329400,   9.44000,
,,,0.000000329500,   9.44000,
,,,0.000000329600,   9.44000,
,,,0.000000329700,   9.44000,
,,,0.000000329800,   9.44000,
,,,0.000000329900,   9.52000,
,,,0.000000330000,   9.52000,
,,,0.000000330100,   9.52000,
,,,0.000000330200,   9.52000,
,,,0.000000330300,   9.52000,
,,,0.000000330400,   9.52000,
,,,0.000000330500,   9.52000,
,,,0.000000330600,   9.52000,
,,,0.000000330700,   9.52000,
,,,0.000000330800,   9.52000,
,,,0.000000330900,   9.52000,
,,,0.000000331000,   9.52000,
,,,0.000000331100,   9.52000,
,,,0.000000331200,   9.52000,
,,,0.000000331300,   9.52000,
,,,0.000000331400,   9.52000,
,,,0.000000331500,   9.52000,
,,,0.000000331600,   9.52000,
,,,0.000000331700,   9.52000,
,,,0.000000331800,   9.60000,
,,,0.000000331900,   9.60000,
,,,0.000000332000,   9.60000,
,,,0.000000332100,   9.60000,
,,,0.000000332200,   9.60000,
,,,0.000000332300,   9.60000,
,,,0.000000332400,   9.60000,
,,,0.000000332500,   9.60000,
,,,0.000000332600,   9.60000,
,,,0.000000332700,   9.60000,
,,,0.000000332800,   9.68000,
,,,0.000000332900,   9.68000,
,,,0.000000333000,   9.68000,
,,,0.000000333100,   9.68000,
,,,0.000000333200,   9.68000,
,,,0.000000333300,   9.68000,
,,,0.000000333400,   9.68000,
,,,0.000000333500,   9.68000,
,,,0.000000333600,   9.68000,
,,,0.000000333700,   9.76000,
,,,0.000000333800,   9.76000,
,,,0.000000333900,   9.76000,
,,,0.000000334000,   9.76000,
,,,0.000000334100,   9.76000,
,,,0.000000334200,   9.68000,
,,,0.000000334300,   9.68000,
,,,0.000000334400,   9.68000,
,,,0.000000334500,   9.68000,
,,,0.000000334600,   9.68000,
,,,0.000000334700,   9.68000,
,,,0.000000334800,   9.68000,
,,,0.000000334900,   9.68000,
,,,0.000000335000,   9.68000,
,,,0.000000335100,   9.60000,
,,,0.000000335200,   9.60000,
,,,0.000000335300,   9.60000,
,,,0.000000335400,   9.60000,
,,,0.000000335500,   9.60000,
,,,0.000000335600,   9.60000,
,,,0.000000335700,   9.60000,
,,,0.000000335800,   9.60000,
,,,0.000000335900,   9.60000,
,,,0.000000336000,   9.60000,
,,,0.000000336100,   9.60000,
,,,0.000000336200,   9.60000,
,,,0.000000336300,   9.60000,
,,,0.000000336400,   9.60000,
,,,0.000000336500,   9.60000,
,,,0.000000336600,   9.60000,
,,,0.000000336700,   9.60000,
,,,0.000000336800,   9.60000,
,,,0.000000336900,   9.60000,
,,,0.000000337000,   9.52000,
,,,0.000000337100,   9.52000,
,,,0.000000337200,   9.52000,
,,,0.000000337300,   9.52000,
,,,0.000000337400,   9.52000,
,,,0.000000337500,   9.52000,
,,,0.000000337600,   9.44000,
,,,0.000000337700,   9.44000,
,,,0.000000337800,   9.44000,
,,,0.000000337900,   9.44000,
,,,0.000000338000,   9.36000,
,,,0.000000338100,   9.36000,
,,,0.000000338200,   9.36000,
,,,0.000000338300,   9.36000,
,,,0.000000338400,   9.36000,
,,,0.000000338500,   9.28000,
,,,0.000000338600,   9.28000,
,,,0.000000338700,   9.28000,
,,,0.000000338800,   9.28000,
,,,0.000000338900,   9.28000,
,,,0.000000339000,   9.28000,
,,,0.000000339100,   9.20000,
,,,0.000000339200,   9.20000,
,,,0.000000339300,   9.20000,
,,,0.000000339400,   9.20000,
,,,0.000000339500,   9.20000,
,,,0.000000339600,   9.20000,
,,,0.000000339700,   9.20000,
,,,0.000000339800,   9.20000,
,,,0.000000339900,   9.20000,
,,,0.000000340000,   9.12000,
,,,0.000000340100,   9.12000,
,,,0.000000340200,   9.12000,
,,,0.000000340300,   9.12000,
,,,0.000000340400,   9.12000,
,,,0.000000340500,   9.12000,
,,,0.000000340600,   9.04000,
,,,0.000000340700,   9.04000,
,,,0.000000340800,   9.04000,
,,,0.000000340900,   9.04000,
,,,0.000000341000,   8.96000,
,,,0.000000341100,   8.96000,
,,,0.000000341200,   8.96000,
,,,0.000000341300,   8.88000,
,,,0.000000341400,   8.88000,
,,,0.000000341500,   8.88000,
,,,0.000000341600,   8.88000,
,,,0.000000341700,   8.80000,
,,,0.000000341800,   8.80000,
,,,0.000000341900,   8.80000,
,,,0.000000342000,   8.72000,
,,,0.000000342100,   8.72000,
,,,0.000000342200,   8.72000,
,,,0.000000342300,   8.64000,
,,,0.000000342400,   8.64000,
,,,0.000000342500,   8.64000,
,,,0.000000342600,   8.64000,
,,,0.000000342700,   8.56000,
,,,0.000000342800,   8.56000,
,,,0.000000342900,   8.56000,
,,,0.000000343000,   8.48000,
,,,0.000000343100,   8.48000,
,,,0.000000343200,   8.40000,
,,,0.000000343300,   8.40000,
,,,0.000000343400,   8.40000,
,,,0.000000343500,   8.32000,
,,,0.000000343600,   8.32000,
,,,0.000000343700,   8.24000,
,,,0.000000343800,   8.24000,
,,,0.000000343900,   8.24000,
,,,0.000000344000,   8.16000,
,,,0.000000344100,   8.16000,
,,,0.000000344200,   8.08000,
,,,0.000000344300,   8.08000,
,,,0.000000344400,   8.08000,
,,,0.000000344500,   8.00000,
,,,0.000000344600,   8.00000,
,,,0.000000344700,   7.92000,
,,,0.000000344800,   7.92000,
,,,0.000000344900,   7.92000,
,,,0.000000345000,   7.84000,
,,,0.000000345100,   7.84000,
,,,0.000000345200,   7.76000,
,,,0.000000345300,   7.76000,
,,,0.000000345400,   7.68000,
,,,0.000000345500,   7.68000,
,,,0.000000345600,   7.60000,
,,,0.000000345700,   7.60000,
,,,0.000000345800,   7.52000,
,,,0.000000345900,   7.52000,
,,,0.000000346000,   7.44000,
,,,0.000000346100,   7.44000,
,,,0.000000346200,   7.36000,
,,,0.000000346300,   7.36000,
,,,0.000000346400,   7.28000,
,,,0.000000346500,   7.28000,
,,,0.000000346600,   7.20000,
,,,0.000000346700,   7.20000,
,,,0.000000346800,   7.12000,
,,,0.000000346900,   7.12000,
,,,0.000000347000,   7.04000,
,,,0.000000347100,   7.04000,
,,,0.000000347200,   6.96000,
,,,0.000000347300,   6.96000,
,,,0.000000347400,   6.88000,
,,,0.000000347500,   6.88000,
,,,0.000000347600,   6.80000,
,,,0.000000347700,   6.80000,
,,,0.000000347800,   6.72000,
,,,0.000000347900,   6.72000,
,,,0.000000348000,   6.64000,
,,,0.000000348100,   6.64000,
,,,0.000000348200,   6.56000,
,,,0.000000348300,   6.56000,
,,,0.000000348400,   6.48000,
,,,0.000000348500,   6.48000,
,,,0.000000348600,   6.40000,
,,,0.000000348700,   6.40000,
,,,0.000000348800,   6.32000,
,,,0.000000348900,   6.32000,
,,,0.000000349000,   6.24000,
,,,0.000000349100,   6.24000,
,,,0.000000349200,   6.16000,
,,,0.000000349300,   6.16000,
,,,0.000000349400,   6.08000,
,,,0.000000349500,   6.08000,
,,,0.000000349600,   6.00000,
,,,0.000000349700,   6.00000,
,,,0.000000349800,   5.92000,
,,,0.000000349900,   5.92000,
,,,0.000000350000,   5.84000,
,,,0.000000350100,   5.76000,
,,,0.000000350200,   5.76000,
,,,0.000000350300,   5.68000,
,,,0.000000350400,   5.68000,
,,,0.000000350500,   5.60000,
,,,0.000000350600,   5.52000,
,,,0.000000350700,   5.52000,
,,,0.000000350800,   5.44000,
,,,0.000000350900,   5.44000,
,,,0.000000351000,   5.36000,
,,,0.000000351100,   5.36000,
,,,0.000000351200,   5.28000,
,,,0.000000351300,   5.28000,
,,,0.000000351400,   5.20000,
,,,0.000000351500,   5.20000,
,,,0.000000351600,   5.12000,
,,,0.000000351700,   5.12000,
,,,0.000000351800,   5.04000,
,,,0.000000351900,   5.04000,
,,,0.000000352000,   4.96000,
,,,0.000000352100,   4.88000,
,,,0.000000352200,   4.88000,
,,,0.000000352300,   4.80000,
,,,0.000000352400,   4.80000,
,,,0.000000352500,   4.72000,
,,,0.000000352600,   4.64000,
,,,0.000000352700,   4.64000,
,,,0.000000352800,   4.56000,
,,,0.000000352900,   4.56000,
,,,0.000000353000,   4.48000,
,,,0.000000353100,   4.48000,
,,,0.000000353200,   4.40000,
,,,0.000000353300,   4.40000,
,,,0.000000353400,   4.32000,
,,,0.000000353500,   4.32000,
,,,0.000000353600,   4.24000,
,,,0.000000353700,   4.24000,
,,,0.000000353800,   4.16000,
,,,0.000000353900,   4.16000,
,,,0.000000354000,   4.08000,
,,,0.000000354100,   4.00000,
,,,0.000000354200,   4.00000,
,,,0.000000354300,   3.92000,
,,,0.000000354400,   3.92000,
,,,0.000000354500,   3.84000,
,,,0.000000354600,   3.76000,
,,,0.000000354700,   3.76000,
,,,0.000000354800,   3.68000,
,,,0.000000354900,   3.68000,
,,,0.000000355000,   3.60000,
,,,0.000000355100,   3.60000,
,,,0.000000355200,   3.52000,
,,,0.000000355300,   3.52000,
,,,0.000000355400,   3.44000,
,,,0.000000355500,   3.44000,
,,,0.000000355600,   3.36000,
,,,0.000000355700,   3.36000,
,,,0.000000355800,   3.28000,
,,,0.000000355900,   3.28000,
,,,0.000000356000,   3.20000,
,,,0.000000356100,   3.20000,
,,,0.000000356200,   3.12000,
,,,0.000000356300,   3.12000,
,,,0.000000356400,   3.04000,
,,,0.000000356500,   3.04000,
,,,0.000000356600,   2.96000,
,,,0.000000356700,   2.96000,
,,,0.000000356800,   2.88000,
,,,0.000000356900,   2.88000,
,,,0.000000357000,   2.80000,
,,,0.000000357100,   2.80000,
,,,0.000000357200,   2.72000,
,,,0.000000357300,   2.72000,
,,,0.000000357400,   2.64000,
,,,0.000000357500,   2.64000,
,,,0.000000357600,   2.56000,
,,,0.000000357700,   2.56000,
,,,0.000000357800,   2.48000,
,,,0.000000357900,   2.48000,
,,,0.000000358000,   2.40000,
,,,0.000000358100,   2.40000,
,,,0.000000358200,   2.32000,
,,,0.000000358300,   2.32000,
,,,0.000000358400,   2.32000,
,,,0.000000358500,   2.24000,
,,,0.000000358600,   2.24000,
,,,0.000000358700,   2.16000,
,,,0.000000358800,   2.16000,
,,,0.000000358900,   2.16000,
,,,0.000000359000,   2.08000,
,,,0.000000359100,   2.08000,
,,,0.000000359200,   2.08000,
,,,0.000000359300,   2.00000,
,,,0.000000359400,   2.00000,
,,,0.000000359500,   2.00000,
,,,0.000000359600,   1.92000,
,,,0.000000359700,   1.92000,
,,,0.000000359800,   1.92000,
,,,0.000000359900,   1.92000,
,,,0.000000360000,   1.84000,
,,,0.000000360100,   1.84000,
,,,0.000000360200,   1.84000,
,,,0.000000360300,   1.76000,
,,,0.000000360400,   1.76000,
,,,0.000000360500,   1.76000,
,,,0.000000360600,   1.68000,
,,,0.000000360700,   1.68000,
,,,0.000000360800,   1.68000,
,,,0.000000360900,   1.68000,
,,,0.000000361000,   1.60000,
,,,0.000000361100,   1.60000,
,,,0.000000361200,   1.60000,
,,,0.000000361300,   1.60000,
,,,0.000000361400,   1.60000,
,,,0.000000361500,   1.52000,
,,,0.000000361600,   1.52000,
,,,0.000000361700,   1.52000,
,,,0.000000361800,   1.52000,
,,,0.000000361900,   1.52000,
,,,0.000000362000,   1.44000,
,,,0.000000362100,   1.44000,
,,,0.000000362200,   1.44000,
,,,0.000000362300,   1.44000,
,,,0.000000362400,   1.44000,
,,,0.000000362500,   1.36000,
,,,0.000000362600,   1.36000,
,,,0.000000362700,   1.36000,
,,,0.000000362800,   1.36000,
,,,0.000000362900,   1.36000,
,,,0.000000363000,   1.28000,
,,,0.000000363100,   1.28000,
,,,0.000000363200,   1.28000,
,,,0.000000363300,   1.28000,
