Lab_2/ALL0001/F0001FFT.CSV

Record Length,1.024000e+03,,          0.00000, -41.78970,
Sample Interval,4.932134e+00,,          4.93213, -38.18970,
Trigger Point,-0.000000000000e+00,,          9.86427, -44.98970,
,,,         14.79640, -66.98970,
,,,         19.72854, -66.98970,
,,,         24.66067, -66.98970,
Source,FFT,,         29.59280, -66.98970,
Vertical Units,dB,,         34.52494, -64.58970,
Vertical Scale,1.000000e+01,,         39.45707, -66.98970,
Vertical Offset,0.000000e+00,,         44.38920, -66.98970,
Horizontal Units,Hz,,         49.32134, -66.98970,
Horizontal Scale,5.050505e+02,,         54.25347, -66.98970,
Pt Fmt,Y,,         59.18561, -66.98970,
Yzero,-2.698970e+01,,         64.11774, -66.98970,
Probe Atten,1.000000e+00,,         69.04987, -66.98970,
Model Number,TBS1072B-EDU,,         73.98201, -66.98970,
Serial Number,C031464,,         78.91414, -66.98970,
Firmware Version,FV:v4.06,,         83.84628, -66.98970,
,,,88.77841, -66.98970,
,,,93.71054, -66.98970,
,,,98.64267, -61.38970,
,,,103.57480, -66.98970,
,,,108.50693, -66.98970,
,,,113.43906, -66.98970,
,,,118.37119, -66.98970,
,,,123.30332, -66.98970,
,,,128.23545, -66.98970,
,,,133.16758, -66.98970,
,,,138.09971, -66.98970,
,,,143.03184, -66.98970,
,,,147.96397, -66.98970,
,,,152.89610, -66.98970,
,,,157.82823, -64.58970,
,,,162.76036, -66.98970,
,,,167.69249, -66.98970,
,,,172.62462, -66.98970,
,,,177.55675, -66.98970,
,,,182.48888, -66.98970,
,,,187.42101, -64.58970,
,,,192.35314, -66.98970,
,,,197.28527, -66.98970,
,,,202.21740, -66.98970,
,,,207.14953, -64.58970,
,,,212.08166, -60.58970,
,,,217.01379, -66.98970,
,,,221.94592, -66.98970,
,,,226.87805, -66.98970,
,,,231.81018, -66.98970,
,,,236.74231, -66.98970,
,,,241.67444, -66.98970,
,,,246.60657, -66.98970,
,,,251.53870, -66.98970,
,,,256.47083, -66.98970,
,,,261.40296, -64.58970,
,,,266.33509, -66.98970,
,,,271.26722, -66.98970,
,,,276.19935, -66.98970,
,,,281.13148, -66.98970,
,,,286.06361, -66.98970,
,,,290.99574, -64.58970,
,,,295.92787, -64.58970,
,,,300.86000, -64.58970,
,,,305.79213, -66.98970,
,,,310.72426, -66.98970,
,,,315.65639, -66.98970,
,,,320.58852, -66.98970,
,,,325.52065, -66.98970,
,,,330.45278, -66.98970,
,,,335.38491, -66.98970,
,,,340.31704, -66.98970,
,,,345.24917, -66.98970,
,,,350.18130, -66.98970,
,,,355.11343, -66.98970,
,,,360.04556, -66.98970,
,,,364.97769, -66.98970,
,,,369.90982, -66.98970,
,,,374.84195, -66.98970,
,,,379.77408, -66.98970,
,,,384.70621, -64.58970,
,,,389.63834, -64.58970,
,,,394.57047, -64.58970,
,,,399.50260, -64.58970,
,,,404.43473, -64.58970,
,,,409.36686, -64.58970,
,,,414.29899, -61.38970,
,,,419.23112, -66.98970,
,,,424.16325, -66.98970,
,,,429.09538, -66.98970,
,,,434.02751, -66.98970,
,,,438.95964, -66.98970,
,,,443.89177, -66.98970,
,,,448.82390, -66.98970,
,,,453.75603, -66.98970,
,,,458.68816, -66.98970,
,,,463.62029, -66.98970,
,,,468.55242, -66.98970,
,,,473.48455, -66.98970,
,,,478.41668, -66.98970,
,,,483.34881, -66.98970,
,,,488.28094, -66.98970,
,,,493.21307, -66.98970,
,,,498.14520, -66.98970,
,,,503.07733, -66.98970,
,,,508.00946, -66.98970,
,,,512.94159, -64.58970,
,,,517.87372, -66.98970,
,,,522.80585, -66.98970,
,,,527.73798, -66.98970,
,,,532.67011, -66.98970,
,,,537.60224, -66.98970,
,,,542.53437, -66.98970,
,,,547.46650, -66.98970,
,,,552.39863, -66.98970,
,,,557.33076, -66.98970,
,,,562.26289, -66.98970,
,,,567.19502, -66.98970,
,,,572.12715, -66.98970,
,,,577.05928, -66.98970,
,,,581.99141, -66.98970,
,,,586.92354, -66.98970,
,,,591.85567, -66.98970,
,,,596.78780, -66.98970,
,,,601.71993, -66.98970,
,,,606.65206, -66.98970,
,,,611.58419, -64.58970,
,,,616.51632, -66.98970,
,,,621.44845, -66.98970,
,,,626.38058, -66.98970,
,,,631.31271, -66.98970,
,,,636.24484, -66.98970,
,,,641.17697, -66.98970,
,,,646.10910, -66.98970,
,,,651.04123, -66.98970,
,,,655.97336, -66.98970,
,,,660.90549, -66.98970,
,,,665.83762, -66.98970,
,,,670.76975, -66.98970,
,,,675.70188, -66.98970,
,,,680.63401, -66.98970,
,,,685.56614, -64.58970,
,,,690.49827, -66.98970,
,,,695.43040, -60.58970,
,,,700.36253, -60.58970,
,,,705.29466, -66.98970,
,,,710.22679, -66.98970,
,,,715.15892, -66.98970,
,,,720.09105, -64.58970,
,,,725.02318, -66.98970,
,,,729.95531, -66.98970,
,,,734.88744, -66.98970,
,,,739.81957, -66.98970,
,,,744.75170, -66.98970,
,,,749.68383, -66.98970,
,,,754.61596, -66.98970,
,,,759.54809, -66.98970,
,,,764.48022, -66.98970,
,,,769.41235, -66.98970,
,,,774.34448, -66.98970,
,,,779.27661, -66.98970,
,,,784.20874, -66.98970,
,,,789.14087, -64.58970,
,,,794.07300, -64.58970,
,,,799.00513, -66.98970,
,,,803.93726, -64.58970,
,,,808.86939, -64.58970,
,,,813.80152, -66.98970,
,,,818.73365, -66.98970,
,,,823.66578, -66.98970,
,,,828.59791, -66.98970,
,,,833.53004, -66.98970,
,,,838.46217, -66.98970,
,,,843.39430, -66.98970,
,,,848.32643, -66.98970,
,,,853.25856, -66.98970,
,,,858.19069, -64.58970,
,,,863.12282, -66.98970,
,,,868.05495, -66.98970,
,,,872.98708, -66.98970,
,,,877.91921, -66.98970,
,,,882.85134, -66.98970,
,,,887.78347, -66.98970,
,,,892.71560, -66.98970,
,,,897.64773, -66.98970,
,,,902.57986, -66.98970,
,,,907.51199, -66.98970,
,,,912.44412, -66.98970,
,,,917.37625, -66.98970,
,,,922.30838, -66.98970,
,,,927.24051, -66.98970,
,,,932.17264, -66.98970,
,,,937.10477, -66.98970,
,,,942.03690, -66.98970,
,,,946.96903, -66.98970,
,,,951.90116, -66.98970,
,,,956.83329, -66.98970,
,,,961.76542, -64.58970,
,,,966.69755, -64.58970,
,,,971.62968, -61.38970,
,,,976.56181, -54.98970,
,,,981.49394, -49.38970,
,,,986.42607, -35.78970,
,,,991.35820, -15.38970,
,,,996.29033, -10.98970,
,,,1001.22246, -10.98970,
,,,1006.15459, -12.18970,
,,,1011.08672, -21.78970,
,,,1016.01885, -43.38970,
,,,1020.95098, -53.38970,
,,,1025.88311, -57.38970,
,,,1030.81524, -66.98970,
,,,1035.74737, -64.58970,
,,,1040.67950, -66.98970,
,,,1045.61163, -64.58970,
,,,1050.54376, -66.98970,
,,,1055.47589, -66.98970,
,,,1060.40802, -66.98970,
,,,1065.34015, -66.98970,
,,,1070.27228, -66.98970,
,,,1075.20441, -66.98970,
,,,1080.13654, -66.98970,
,,,1085.06867, -66.98970,
,,,1090.00080, -66.98970,
,,,1094.93293, -66.98970,
,,,1099.86506, -66.98970,
,,,1104.79719, -66.98970,
,,,1109.72932, -66.98970,
,,,1114.66145, -64.58970,
,,,1119.59358, -66.98970,
,,,1124.52571, -66.98970,
,,,1129.45784, -66.98970,
,,,1134.38997, -66.98970,
,,,1139.32210, -66.98970,
,,,1144.25423, -66.98970,
,,,1149.18636, -66.98970,
,,,1154.11849, -66.98970,
,,,1159.05062, -66.98970,
,,,1163.98275, -66.98970,
,,,1168.91488, -66.98970,
,,,1173.84701, -66.98970,
,,,1178.77914, -66.98970,
,,,1183.71127, -66.98970,
,,,1188.64340, -66.98970,
,,,1193.57553, -66.98970,
,,,1198.50766, -64.58970,
,,,1203.43979, -60.58970,
,,,1208.37192, -60.58970,
,,,1213.30405, -61.38970,
,,,1218.23618, -61.38970,
,,,1223.16831, -64.58970,
,,,1228.10044, -66.98970,
,,,1233.03257, -66.98970,
,,,1237.96470, -66.98970,
,,,1242.89683, -66.98970,
,,,1247.82896, -66.98970,
,,,1252.76109, -66.98970,
,,,1257.69322, -66.98970,
,,,1262.62535, -64.58970,
,,,1267.55748, -66.98970,
,,,1272.48961, -66.98970,
,,,1277.42174, -66.98970,
,,,1282.35387, -66.98970,
,,,1287.28600, -66.98970,
,,,1292.21813, -66.98970,
,,,1297.15026, -66.98970,
,,,1302.08239, -61.38970,
,,,1307.01452, -61.38970,
,,,1311.94665, -60.58970,
,,,1316.87878, -60.58970,
,,,1321.81091, -64.58970,
,,,1326.74304, -64.58970,
,,,1331.67517, -66.98970,
,,,1336.60730, -66.98970,
,,,1341.53943, -66.98970,
,,,1346.47156, -66.98970,
,,,1351.40369, -66.98970,
,,,1356.33582, -66.98970,
,,,1361.26795, -64.58970,
,,,1366.20008, -66.98970,
,,,1371.13221, -66.98970,
,,,1376.06434, -66.98970,
,,,1380.99647, -61.38970,
,,,1385.92860, -66.98970,
,,,1390.86073, -66.98970,
,,,1395.79286, -66.98970,
,,,1400.72499, -64.58970,
,,,1405.65712, -66.98970,
,,,1410.58925, -66.98970,
,,,1415.52138, -66.98970,
,,,1420.45351, -66.98970,
,,,1425.38564, -66.98970,
,,,1430.31777, -66.98970,
,,,1435.24990, -66.98970,
,,,1440.18203, -66.98970,
,,,1445.11416, -64.58970,
,,,1450.04629, -66.98970,
,,,1454.97842, -66.98970,
,,,1459.91055, -66.98970,
,,,1464.84268, -66.98970,
,,,1469.77481, -66.98970,
,,,1474.70694, -66.98970,
,,,1479.63907, -64.58970,
,,,1484.57120, -64.58970,
,,,1489.50333, -64.58970,
,,,1494.43546, -66.98970,
,,,1499.36759, -66.98970,
,,,1504.29972, -64.58970,
,,,1509.23185, -66.98970,
,,,1514.16398, -66.98970,
,,,1519.09611, -66.98970,
,,,1524.02824, -66.98970,
,,,1528.96037, -66.98970,
,,,1533.89250, -66.98970,
,,,1538.82463, -66.98970,
,,,1543.75676, -66.98970,
,,,1548.68889, -66.98970,
,,,1553.62102, -66.98970,
,,,1558.55315, -66.98970,
,,,1563.48528, -66.98970,
,,,1568.41741, -64.58970,
,,,1573.34954, -66.98970,
,,,1578.28167, -66.98970,
,,,1583.21380, -66.98970,
,,,1588.14593, -66.98970,
,,,1593.07806, -66.98970,
,,,1598.01019, -61.38970,
,,,1602.94232, -64.58970,
,,,1607.87445, -61.38970,
,,,1612.80658, -66.98970,
,,,1617.73871, -66.98970,
,,,1622.67084, -66.98970,
,,,1627.60297, -66.98970,
,,,1632.53510, -64.58970,
,,,1637.46723, -66.98970,
,,,1642.39936, -66.98970,
,,,1647.33149, -66.98970,
,,,1652.26362, -66.98970,
,,,1657.19575, -66.98970,
,,,1662.12788, -66.98970,
,,,1667.06001, -66.98970,
,,,1671.99214, -66.98970,
,,,1676.92427, -66.98970,
,,,1681.85640, -66.98970,
,,,1686.78853, -64.58970,
,,,1691.72066, -66.98970,
,,,1696.65279, -66.98970,
,,,1701.58492, -66.98970,
,,,1706.51705, -66.98970,
,,,1711.44918, -66.98970,
,,,1716.38131, -66.98970,
,,,1721.31344, -64.58970,
,,,1726.24557, -64.58970,
,,,1731.17770, -66.98970,
,,,1736.10983, -66.98970,
,,,1741.04196, -66.98970,
,,,1745.97409, -66.98970,
,,,1750.90622, -66.98970,
,,,1755.83835, -66.98970,
,,,1760.77048, -66.98970,
,,,1765.70261, -66.98970,
,,,1770.63474, -66.98970,
,,,1775.56687, -66.98970,
,,,1780.49900, -64.58970,
,,,1785.43113, -60.58970,
,,,1790.36326, -60.58970,
,,,1795.29539, -60.58970,
,,,1800.22752, -66.98970,
,,,1805.15965, -64.58970,
,,,1810.09178, -66.98970,
,,,1815.02391, -60.58970,
,,,1819.95604, -66.98970,
,,,1824.88817, -66.98970,
,,,1829.82030, -66.98970,
,,,1834.75243, -66.98970,
,,,1839.68456, -66.98970,
,,,1844.61669, -66.98970,
,,,1849.54882, -66.98970,
,,,1854.48095, -66.98970,
,,,1859.41308, -64.58970,
,,,1864.34521, -66.98970,
,,,1869.27734, -66.98970,
,,,1874.20947, -66.98970,
,,,1879.14160, -66.98970,
,,,1884.07373, -66.98970,
,,,1889.00586, -66.98970,
,,,1893.93799, -66.98970,
,,,1898.87012, -66.98970,
,,,1903.80225, -61.38970,
,,,1908.73438, -66.98970,
,,,1913.66651, -61.38970,
,,,1918.59864, -64.58970,
,,,1923.53077, -64.58970,
,,,1928.46290, -66.98970,
,,,1933.39503, -64.58970,
,,,1938.32716, -66.98970,
,,,1943.25929, -66.98970,
,,,1948.19142, -66.98970,
,,,1953.12355, -64.58970,
,,,1958.05568, -66.98970,
,,,1962.98781, -66.98970,
,,,1967.91994, -66.98970,
,,,1972.85207, -66.98970,
,,,1977.78420, -66.98970,
,,,1982.71633, -61.38970,
,,,1987.64846, -64.58970,
,,,1992.58059, -64.58970,
,,,1997.51272, -66.98970,
,,,2002.44485, -60.58970,
,,,2007.37698, -60.58970,
,,,2012.30911, -66.98970,
,,,2017.24124, -64.58970,
,,,2022.17337, -66.98970,
,,,2027.10550, -64.58970,
,,,2032.03763, -64.58970,
,,,2036.96976, -66.98970,
,,,2041.90189, -66.98970,
,,,2046.83402, -66.98970,
,,,2051.76615, -66.98970,
,,,2056.69828, -66.98970,
,,,2061.63041, -66.98970,
,,,2066.56254, -66.98970,
,,,2071.49467, -66.98970,
,,,2076.42680, -66.98970,
,,,2081.35893, -66.98970,
,,,2086.29106, -66.98970,
,,,2091.22319, -64.58970,
,,,2096.15532, -66.98970,
,,,2101.08745, -64.58970,
,,,2106.01958, -66.98970,
,,,2110.95171, -66.98970,
,,,2115.88384, -66.98970,
,,,2120.81597, -66.98970,
,,,2125.74810, -66.98970,
,,,2130.68023, -66.98970,
,,,2135.61236, -66.98970,
,,,2140.54449, -66.98970,
,,,2145.47662, -66.98970,
,,,2150.40875, -66.98970,
,,,2155.34088, -66.98970,
,,,2160.27301, -66.98970,
,,,2165.20514, -66.98970,
,,,2170.13727, -66.98970,
,,,2175.06940, -66.98970,
,,,2180.00153, -64.58970,
,,,2184.93366, -66.98970,
,,,2189.86579, -66.98970,
,,,2194.79792, -64.58970,
,,,2199.73005, -66.98970,
,,,2204.66218, -66.98970,
,,,2209.59431, -66.98970,
,,,2214.52644, -66.98970,
,,,2219.45857, -64.58970,
,,,2224.39070, -64.58970,
,,,2229.32283, -66.98970,
,,,2234.25496, -66.98970,
,,,2239.18709, -66.98970,
,,,2244.11922, -66.98970,
,,,2249.05135, -66.98970,
,,,2253.98348, -66.98970,
,,,2258.91561, -66.98970,
,,,2263.84774, -66.98970,
,,,2268.77987, -66.98970,
,,,2273.71200, -66.98970,
,,,2278.64413, -66.98970,
,,,2283.57626, -66.98970,
,,,2288.50839, -66.98970,
,,,2293.44052, -66.98970,
,,,2298.37265, -66.98970,
,,,2303.30478, -66.98970,
,,,2308.23691, -66.98970,
,,,2313.16904, -66.98970,
,,,2318.10117, -66.98970,
,,,2323.03330, -66.98970,
,,,2327.96543, -66.98970,
,,,2332.89756, -66.98970,
,,,2337.82969, -66.98970,
,,,2342.76182, -66.98970,
,,,2347.69395, -66.98970,
,,,2352.62608, -66.98970,
,,,2357.55821, -64.58970,
,,,2362.49034, -66.98970,
,,,2367.42247, -64.58970,
,,,2372.35460, -64.58970,
,,,2377.28673, -64.58970,
,,,2382.21886, -66.98970,
,,,2387.15099, -66.98970,
,,,2392.08312, -66.98970,
,,,2397.01525, -66.98970,
,,,2401.94738, -66.98970,
,,,2406.87951, -66.98970,
,,,2411.81164, -66.98970,
,,,2416.74377, -60.58970,
,,,2421.67590, -66.98970,
,,,2426.60803, -66.98970,
,,,2431.54016, -66.98970,
,,,2436.47229, -66.98970,
,,,2441.40442, -66.98970,
,,,2446.33655, -66.98970,
,,,2451.26868, -66.98970,
,,,2456.20081, -66.98970,
,,,2461.13294, -66.98970,
,,,2466.06507, -66.98970,
,,,2470.99720, -66.98970,
,,,2475.92933, -66.98970,
,,,2480.86146, -64.58970,
,,,2485.79359, -66.98970,
,,,2490.72572, -66.98970,
,,,2495.65785, -64.58970,
,,,2500.58998, -66.98970,
,,,2505.52211, -66.98970,
,,,2510.45424, -66.98970,
,,,2515.38637, -66.98970,
,,,2520.31850, -66.98970,
,,,2525.25063, -64.58970,
,,,2530.18276, -66.98970,
,,,2535.11489, -66.98970,
,,,2540.04702, -66.98970,
,,,2544.97915, -66.98970,
,,,2549.91128, -66.98970,
,,,2554.84341, -66.98970,
,,,2559.77554, -66.98970,
,,,2564.70767, -66.98970,
,,,2569.63980, -66.98970,
,,,2574.57193, -66.98970,
,,,2579.50406, -66.98970,
,,,2584.43619, -66.98970,
,,,2589.36832, -66.98970,
,,,2594.30045, -66.98970,
,,,2599.23258, -66.98970,
,,,2604.16471, -66.98970,
,,,2609.09684, -66.98970,
,,,2614.02897, -66.98970,
,,,2618.96110, -66.98970,
,,,2623.89323, -66.98970,
,,,2628.82536, -66.98970,
,,,2633.75749, -66.98970,
,,,2638.68962, -66.98970,
,,,2643.62175, -66.98970,
,,,2648.55388, -66.98970,
,,,2653.48601, -66.98970,
,,,2658.41814, -66.98970,
,,,2663.35027, -66.98970,
,,,2668.28240, -66.98970,
,,,2673.21453, -66.98970,
,,,2678.14666, -61.38970,
,,,2683.07879, -66.98970,
,,,2688.01092, -66.98970,
,,,2692.94305, -60.58970,
,,,2697.87518, -64.58970,
,,,2702.80731, -60.58970,
,,,2707.73944, -66.98970,
,,,2712.67157, -66.98970,
,,,2717.60370, -66.98970,
,,,2722.53583, -66.98970,
,,,2727.46796, -66.98970,
,,,2732.40009, -66.98970,
,,,2737.33222, -66.98970,
,,,2742.26435, -66.98970,
,,,2747.19648, -64.58970,
,,,2752.12861, -64.58970,
,,,2757.06074, -64.58970,
,,,2761.99287, -66.98970,
,,,2766.92500, -66.98970,
,,,2771.85713, -64.58970,
,,,2776.78926, -66.98970,
,,,2781.72139, -66.98970,
,,,2786.65352, -64.58970,
,,,2791.58565, -60.58970,
,,,2796.51778, -60.58970,
,,,2801.44991, -66.98970,
,,,2806.38204, -66.98970,
,,,2811.31417, -66.98970,
,,,2816.24630, -66.98970,
,,,2821.17843, -64.58970,
,,,2826.11056, -66.98970,
,,,2831.04269, -66.98970,
,,,2835.97482, -66.98970,
,,,2840.90695, -66.98970,
,,,2845.83908, -66.98970,
,,,2850.77121, -66.98970,
,,,2855.70334, -66.98970,
,,,2860.63547, -66.98970,
,,,2865.56760, -66.98970,
,,,2870.49973, -66.98970,
,,,2875.43186, -66.98970,
,,,2880.36399, -66.98970,
,,,2885.29612, -64.58970,
,,,2890.22825, -64.58970,
,,,2895.16038, -60.58970,
,,,2900.09251, -64.58970,
,,,2905.02464, -66.98970,
,,,2909.95677, -66.98970,
,,,2914.88890, -66.98970,
,,,2919.82103, -66.98970,
,,,2924.75316, -66.98970,
,,,2929.68529, -66.98970,
,,,2934.61742, -66.98970,
,,,2939.54955, -64.58970,
,,,2944.48168, -66.98970,
,,,2949.41381, -66.98970,
,,,2954.34594, -66.98970,
,,,2959.27807, -66.98970,
,,,2964.21020, -66.98970,
,,,2969.14233, -66.98970,
,,,2974.07446, -66.98970,
,,,2979.00659, -66.98970,
,,,2983.93872, -66.98970,
,,,2988.87085, -66.98970,
,,,2993.80298, -66.98970,
,,,2998.73511, -66.98970,
,,,3003.66724, -66.98970,
,,,3008.59937, -66.98970,
,,,3013.53150, -66.98970,
,,,3018.46363, -66.98970,
,,,3023.39576, -66.98970,
,,,3028.32789, -66.98970,
,,,3033.26002, -66.98970,
,,,3038.19215, -66.98970,
,,,3043.12428, -66.98970,
,,,3048.05641, -66.98970,
,,,3052.98854, -66.98970,
,,,3057.92067, -66.98970,
,,,3062.85280, -66.98970,
,,,3067.78493, -66.98970,
,,,3072.71706, -66.98970,
,,,3077.64919, -66.98970,
,,,3082.58132, -66.98970,
,,,3087.51345, -66.98970,
,,,3092.44558, -60.58970,
,,,3097.37771, -56.18970,
,,,3102.30984, -58.58970,
,,,3107.24197, -57.38970,
,,,3112.17410, -60.58970,
,,,3117.10623, -66.98970,
,,,3122.03836, -66.98970,
,,,3126.97049, -66.98970,
,,,3131.90262, -66.98970,
,,,3136.83475, -66.98970,
,,,3141.76688, -66.98970,
,,,3146.69901, -66.98970,
,,,3151.63114, -66.98970,
,,,3156.56327, -66.98970,
,,,3161.49540, -66.98970,
,,,3166.42753, -66.98970,
,,,3171.35966, -66.98970,
,,,3176.29179, -66.98970,
,,,3181.22392, -66.98970,
,,,3186.15605, -66.98970,
,,,3191.08818, -66.98970,
,,,3196.02031, -66.98970,
,,,3200.95244, -66.98970,
,,,3205.88457, -66.98970,
,,,3210.81670, -61.38970,
,,,3215.74883, -64.58970,
,,,3220.68096, -64.58970,
,,,3225.61309, -66.98970,
,,,3230.54522, -66.98970,
,,,3235.47735, -66.98970,
,,,3240.40948, -66.98970,
,,,3245.34161, -66.98970,
,,,3250.27374, -66.98970,
,,,3255.20587, -64.58970,
,,,3260.13800, -64.58970,
,,,3265.07013, -66.98970,
,,,3270.00226, -66.98970,
,,,3274.93439, -66.98970,
,,,3279.86652, -66.98970,
,,,3284.79865, -66.98970,
,,,3289.73078, -66.98970,
,,,3294.66291, -66.98970,
,,,3299.59504, -66.98970,
,,,3304.52717, -66.98970,
,,,3309.45930, -66.98970,
,,,3314.39143, -66.98970,
,,,3319.32356, -66.98970,
,,,3324.25569, -66.98970,
,,,3329.18782, -66.98970,
,,,3334.11995, -66.98970,
,,,3339.05208, -64.58970,
,,,3343.98421, -66.98970,
,,,3348.91634, -66.98970,
,,,3353.84847, -66.98970,
,,,3358.78060, -66.98970,
,,,3363.71273, -66.98970,
,,,3368.64486, -66.98970,
,,,3373.57699, -66.98970,
,,,3378.50912, -66.98970,
,,,3383.44125, -66.98970,
,,,3388.37338, -66.98970,
,,,3393.30551, -66.98970,
,,,3398.23764, -66.98970,
,,,3403.16977, -64.58970,
,,,3408.10190, -66.98970,
,,,3413.03403, -66.98970,
,,,3417.96616, -66.98970,
,,,3422.89829, -64.58970,
,,,3427.83042, -66.98970,
,,,3432.76255, -66.98970,
,,,3437.69468, -66.98970,
,,,3442.62681, -66.98970,
,,,3447.55894, -66.98970,
,,,3452.49107, -66.98970,
,,,3457.42320, -66.98970,
,,,3462.35533, -66.98970,
,,,3467.28746, -66.98970,
,,,3472.21959, -66.98970,
,,,3477.15172, -66.98970,
,,,3482.08385, -66.98970,
,,,3487.01598, -66.98970,
,,,3491.94811, -66.98970,
,,,3496.88024, -66.98970,
,,,3501.81237, -66.98970,
,,,3506.74450, -66.98970,
,,,3511.67663, -66.98970,
,,,3516.60876, -66.98970,
,,,3521.54089, -64.58970,
,,,3526.47302, -66.98970,
,,,3531.40515, -66.98970,
,,,3536.33728, -66.98970,
,,,3541.26941, -66.98970,
,,,3546.20154, -66.98970,
,,,3551.13367, -66.98970,
,,,3556.06580, -66.98970,
,,,3560.99793, -64.58970,
,,,3565.93006, -66.98970,
,,,3570.86219, -64.58970,
,,,3575.79432, -66.98970,
,,,3580.72645, -66.98970,
,,,3585.65858, -66.98970,
,,,3590.59071, -66.98970,
,,,3595.52284, -66.98970,
,,,3600.45497, -60.58970,
,,,3605.38710, -61.38970,
,,,3610.31923, -61.38970,
,,,3615.25136, -64.58970,
,,,3620.18349, -66.98970,
,,,3625.11562, -66.98970,
,,,3630.04775, -66.98970,
,,,3634.97988, -66.98970,
,,,3639.91201, -64.58970,
,,,3644.84414, -66.98970,
,,,3649.77627, -66.98970,
,,,3654.70840, -66.98970,
,,,3659.64053, -66.98970,
,,,3664.57266, -66.98970,
,,,3669.50479, -64.58970,
,,,3674.43692, -66.98970,
,,,3679.36905, -66.98970,
,,,3684.30118, -66.98970,
,,,3689.23331, -66.98970,
,,,3694.16544, -64.58970,
,,,3699.09757, -66.98970,
,,,3704.02970, -66.98970,
,,,3708.96183, -66.98970,
,,,3713.89396, -66.98970,
,,,3718.82609, -66.98970,
,,,3723.75822, -66.98970,
,,,3728.69035, -66.98970,
,,,3733.62248, -64.58970,
,,,3738.55461, -66.98970,
