Lab_5/THE LAST EXP/ALL0006/F0006CH2.CSV

Record Length,2.500000e+03,,   0.000000373000,   5.44000,
Sample Interval,4.000000e-11,,   0.000000373040,   5.44000,
Trigger Point,-9.325000000000e+03,,   0.000000373080,   5.52000,
,,,   0.000000373120,   5.52000,
,,,   0.000000373160,   5.52000,
,,,   0.000000373200,   5.52000,
Source,CH2,,   0.000000373240,   5.52000,
Vertical Units,V,,   0.000000373280,   5.52000,
Vertical Scale,2.000000e+00,,   0.000000373320,   5.60000,
Vertical Offset,-5.120000e+00,,   0.000000373360,   5.60000,
Horizontal Units,s,,   0.000000373400,   5.60000,
Horizontal Scale,1.000000e-08,,   0.000000373440,   5.60000,
Pt Fmt,Y,,   0.000000373480,   5.60000,
Yzero,0.000000e+00,,   0.000000373520,   5.60000,
Probe Atten,1.000000e+01,,   0.000000373560,   5.60000,
Model Number,TBS1072B-EDU,,   0.000000373600,   5.68000,
Serial Number,C031464,,   0.000000373640,   5.68000,
Firmware Version,FV:v4.06,,   0.000000373680,   5.68000,
,,,0.000000373720,   5.68000,
,,,0.000000373760,   5.68000,
,,,0.000000373800,   5.68000,
,,,0.000000373840,   5.68000,
,,,0.000000373880,   5.76000,
,,,0.000000373920,   5.76000,
,,,0.000000373960,   5.76000,
,,,0.000000374000,   5.76000,
,,,0.000000374040,   5.76000,
,,,0.000000374080,   5.76000,
,,,0.000000374120,   5.84000,
,,,0.000000374160,   5.84000,
,,,0.000000374200,   5.84000,
,,,0.000000374240,   5.84000,
,,,0.000000374280,   5.84000,
,,,0.000000374320,   5.84000,
,,,0.000000374360,   5.84000,
,,,0.000000374400,   5.84000,
,,,0.000000374440,   5.92000,
,,,0.000000374480,   5.92000,
,,,0.000000374520,   5.92000,
,,,0.000000374560,   5.92000,
,,,0.000000374600,   5.92000,
,,,0.000000374640,   5.92000,
,,,0.000000374680,   6.00000,
,,,0.000000374720,   6.00000,
,,,0.000000374760,   6.00000,
,,,0.000000374800,   6.00000,
,,,0.000000374840,   6.00000,
,,,0.000000374880,   6.00000,
,,,0.000000374920,   6.00000,
,,,0.000000374960,   6.00000,
,,,0.000000375000,   6.08000,
,,,0.000000375040,   6.08000,
,,,0.000000375080,   6.08000,
,,,0.000000375120,   6.08000,
,,,0.000000375160,   6.08000,
,,,0.000000375200,   6.08000,
,,,0.000000375240,   6.08000,
,,,0.000000375280,   6.16000,
,,,0.000000375320,   6.16000,
,,,0.000000375360,   6.16000,
,,,0.000000375400,   6.16000,
,,,0.000000375440,   6.16000,
,,,0.000000375480,   6.16000,
,,,0.000000375520,   6.16000,
,,,0.000000375560,   6.24000,
,,,0.000000375600,   6.24000,
,,,0.000000375640,   6.24000,
,,,0.000000375680,   6.24000,
,,,0.000000375720,   6.24000,
,,,0.000000375760,   6.24000,
,,,0.000000375800,   6.24000,
,,,0.000000375840,   6.32000,
,,,0.000000375880,   6.32000,
,,,0.000000375920,   6.32000,
,,,0.000000375960,   6.32000,
,,,0.000000376000,   6.32000,
,,,0.000000376040,   6.32000,
,,,0.000000376080,   6.32000,
,,,0.000000376120,   6.40000,
,,,0.000000376160,   6.40000,
,,,0.000000376200,   6.40000,
,,,0.000000376240,   6.40000,
,,,0.000000376280,   6.40000,
,,,0.000000376320,   6.40000,
,,,0.000000376360,   6.40000,
,,,0.000000376400,   6.48000,
,,,0.000000376440,   6.48000,
,,,0.000000376480,   6.48000,
,,,0.000000376520,   6.48000,
,,,0.000000376560,   6.48000,
,,,0.000000376600,   6.48000,
,,,0.000000376640,   6.56000,
,,,0.000000376680,   6.56000,
,,,0.000000376720,   6.56000,
,,,0.000000376760,   6.56000,
,,,0.000000376800,   6.56000,
,,,0.000000376840,   6.56000,
,,,0.000000376880,   6.56000,
,,,0.000000376920,   6.56000,
,,,0.000000376960,   6.64000,
,,,0.000000377000,   6.64000,
,,,0.000000377040,   6.64000,
,,,0.000000377080,   6.64000,
,,,0.000000377120,   6.64000,
,,,0.000000377160,   6.64000,
,,,0.000000377200,   6.64000,
,,,0.000000377240,   6.64000,
,,,0.000000377280,   6.64000,
,,,0.000000377320,   6.72000,
,,,0.000000377360,   6.72000,
,,,0.000000377400,   6.72000,
,,,0.000000377440,   6.72000,
,,,0.000000377480,   6.72000,
,,,0.000000377520,   6.72000,
,,,0.000000377560,   6.72000,
,,,0.000000377600,   6.72000,
,,,0.000000377640,   6.80000,
,,,0.000000377680,   6.80000,
,,,0.000000377720,   6.80000,
,,,0.000000377760,   6.80000,
,,,0.000000377800,   6.80000,
,,,0.000000377840,   6.80000,
,,,0.000000377880,   6.80000,
,,,0.000000377920,   6.80000,
,,,0.000000377960,   6.80000,
,,,0.000000378000,   6.88000,
,,,0.000000378040,   6.88000,
,,,0.000000378080,   6.88000,
,,,0.000000378120,   6.88000,
,,,0.000000378160,   6.88000,
,,,0.000000378200,   6.88000,
,,,0.000000378240,   6.88000,
,,,0.000000378280,   6.88000,
,,,0.000000378320,   6.96000,
,,,0.000000378360,   6.96000,
,,,0.000000378400,   6.96000,
,,,0.000000378440,   6.96000,
,,,0.000000378480,   6.96000,
,,,0.000000378520,   6.96000,
,,,0.000000378560,   6.96000,
,,,0.000000378600,   6.96000,
,,,0.000000378640,   7.04000,
,,,0.000000378680,   7.04000,
,,,0.000000378720,   7.04000,
,,,0.000000378760,   7.04000,
,,,0.000000378800,   7.04000,
,,,0.000000378840,   7.04000,
,,,0.000000378880,   7.04000,
,,,0.000000378920,   7.04000,
,,,0.000000378960,   7.04000,
,,,0.000000379000,   7.12000,
,,,0.000000379040,   7.12000,
,,,0.000000379080,   7.12000,
,,,0.000000379120,   7.12000,
,,,0.000000379160,   7.12000,
,,,0.000000379200,   7.12000,
,,,0.000000379240,   7.12000,
,,,0.000000379280,   7.12000,
,,,0.000000379320,   7.20000,
,,,0.000000379360,   7.20000,
,,,0.000000379400,   7.20000,
,,,0.000000379440,   7.20000,
,,,0.000000379480,   7.20000,
,,,0.000000379520,   7.20000,
,,,0.000000379560,   7.20000,
,,,0.000000379600,   7.20000,
,,,0.000000379640,   7.28000,
,,,0.000000379680,   7.28000,
,,,0.000000379720,   7.28000,
,,,0.000000379760,   7.28000,
,,,0.000000379800,   7.28000,
,,,0.000000379840,   7.28000,
,,,0.000000379880,   7.28000,
,,,0.000000379920,   7.28000,
,,,0.000000379960,   7.28000,
,,,0.000000380000,   7.28000,
,,,0.000000380040,   7.28000,
,,,0.000000380080,   7.36000,
,,,0.000000380120,   7.36000,
,,,0.000000380160,   7.36000,
,,,0.000000380200,   7.36000,
,,,0.000000380240,   7.36000,
,,,0.000000380280,   7.36000,
,,,0.000000380320,   7.36000,
,,,0.000000380360,   7.36000,
,,,0.000000380400,   7.36000,
,,,0.000000380440,   7.44000,
,,,0.000000380480,   7.44000,
,,,0.000000380520,   7.44000,
,,,0.000000380560,   7.44000,
,,,0.000000380600,   7.44000,
,,,0.000000380640,   7.44000,
,,,0.000000380680,   7.44000,
,,,0.000000380720,   7.44000,
,,,0.000000380760,   7.44000,
,,,0.000000380800,   7.44000,
,,,0.000000380840,   7.52000,
,,,0.000000380880,   7.52000,
,,,0.000000380920,   7.52000,
,,,0.000000380960,   7.52000,
,,,0.000000381000,   7.52000,
,,,0.000000381040,   7.52000,
,,,0.000000381080,   7.52000,
,,,0.000000381120,   7.52000,
,,,0.000000381160,   7.60000,
,,,0.000000381200,   7.60000,
,,,0.000000381240,   7.60000,
,,,0.000000381280,   7.60000,
,,,0.000000381320,   7.60000,
,,,0.000000381360,   7.60000,
,,,0.000000381400,   7.60000,
,,,0.000000381440,   7.60000,
,,,0.000000381480,   7.60000,
,,,0.000000381520,   7.68000,
,,,0.000000381560,   7.68000,
,,,0.000000381600,   7.68000,
,,,0.000000381640,   7.68000,
,,,0.000000381680,   7.68000,
,,,0.000000381720,   7.68000,
,,,0.000000381760,   7.68000,
,,,0.000000381800,   7.68000,
,,,0.000000381840,   7.68000,
,,,0.000000381880,   7.76000,
,,,0.000000381920,   7.76000,
,,,0.000000381960,   7.76000,
,,,0.000000382000,   7.76000,
,,,0.000000382040,   7.76000,
,,,0.000000382080,   7.76000,
,,,0.000000382120,   7.76000,
,,,0.000000382160,   7.76000,
,,,0.000000382200,   7.76000,
,,,0.000000382240,   7.76000,
,,,0.000000382280,   7.76000,
,,,0.000000382320,   7.84000,
,,,0.000000382360,   7.84000,
,,,0.000000382400,   7.84000,
,,,0.000000382440,   7.84000,
,,,0.000000382480,   7.84000,
,,,0.000000382520,   7.84000,
,,,0.000000382560,   7.84000,
,,,0.000000382600,   7.84000,
,,,0.000000382640,   7.84000,
,,,0.000000382680,   7.84000,
,,,0.000000382720,   7.92000,
,,,0.000000382760,   7.92000,
,,,0.000000382800,   7.92000,
,,,0.000000382840,   7.92000,
,,,0.000000382880,   7.92000,
,,,0.000000382920,   7.92000,
,,,0.000000382960,   7.92000,
,,,0.000000383000,   7.92000,
,,,0.000000383040,   7.92000,
,,,0.000000383080,   7.92000,
,,,0.000000383120,   7.92000,
,,,0.000000383160,   7.92000,
,,,0.000000383200,   7.92000,
,,,0.000000383240,   8.00000,
,,,0.000000383280,   8.00000,
,,,0.000000383320,   8.00000,
,,,0.000000383360,   8.00000,
,,,0.000000383400,   8.00000,
,,,0.000000383440,   8.00000,
,,,0.000000383480,   8.00000,
,,,0.000000383520,   8.00000,
,,,0.000000383560,   8.00000,
,,,0.000000383600,   8.08000,
,,,0.000000383640,   8.08000,
,,,0.000000383680,   8.08000,
,,,0.000000383720,   8.08000,
,,,0.000000383760,   8.08000,
,,,0.000000383800,   8.08000,
,,,0.000000383840,   8.08000,
,,,0.000000383880,   8.08000,
,,,0.000000383920,   8.08000,
,,,0.000000383960,   8.08000,
,,,0.000000384000,   8.08000,
,,,0.000000384040,   8.08000,
,,,0.000000384080,   8.08000,
,,,0.000000384120,   8.16000,
,,,0.000000384160,   8.16000,
,,,0.000000384200,   8.16000,
,,,0.000000384240,   8.16000,
,,,0.000000384280,   8.16000,
,,,0.000000384320,   8.16000,
,,,0.000000384360,   8.16000,
,,,0.000000384400,   8.16000,
,,,0.000000384440,   8.16000,
,,,0.000000384480,   8.16000,
,,,0.000000384520,   8.16000,
,,,0.000000384560,   8.24000,
,,,0.000000384600,   8.24000,
,,,0.000000384640,   8.24000,
,,,0.000000384680,   8.24000,
,,,0.000000384720,   8.24000,
,,,0.000000384760,   8.24000,
,,,0.000000384800,   8.24000,
,,,0.000000384840,   8.24000,
,,,0.000000384880,   8.24000,
,,,0.000000384920,   8.24000,
,,,0.000000384960,   8.24000,
,,,0.000000385000,   8.24000,
,,,0.000000385040,   8.32000,
,,,0.000000385080,   8.32000,
,,,0.000000385120,   8.32000,
,,,0.000000385160,   8.32000,
,,,0.000000385200,   8.32000,
,,,0.000000385240,   8.32000,
,,,0.000000385280,   8.32000,
,,,0.000000385320,   8.32000,
,,,0.000000385360,   8.32000,
,,,0.000000385400,   8.32000,
,,,0.000000385440,   8.32000,
,,,0.000000385480,   8.40000,
,,,0.000000385520,   8.40000,
,,,0.000000385560,   8.40000,
,,,0.000000385600,   8.40000,
,,,0.000000385640,   8.40000,
,,,0.000000385680,   8.40000,
,,,0.000000385720,   8.40000,
,,,0.000000385760,   8.40000,
,,,0.000000385800,   8.40000,
,,,0.000000385840,   8.40000,
,,,0.000000385880,   8.40000,
,,,0.000000385920,   8.40000,
,,,0.000000385960,   8.40000,
,,,0.000000386000,   8.40000,
,,,0.000000386040,   8.48000,
,,,0.000000386080,   8.48000,
,,,0.000000386120,   8.48000,
,,,0.000000386160,   8.48000,
,,,0.000000386200,   8.48000,
,,,0.000000386240,   8.48000,
,,,0.000000386280,   8.48000,
,,,0.000000386320,   8.48000,
,,,0.000000386360,   8.48000,
,,,0.000000386400,   8.48000,
,,,0.000000386440,   8.48000,
,,,0.000000386480,   8.48000,
,,,0.000000386520,   8.56000,
,,,0.000000386560,   8.56000,
,,,0.000000386600,   8.56000,
,,,0.000000386640,   8.56000,
,,,0.000000386680,   8.56000,
,,,0.000000386720,   8.56000,
,,,0.000000386760,   8.56000,
,,,0.000000386800,   8.56000,
,,,0.000000386840,   8.56000,
,,,0.000000386880,   8.56000,
,,,0.000000386920,   8.56000,
,,,0.000000386960,   8.56000,
,,,0.000000387000,   8.56000,
,,,0.000000387040,   8.56000,
,,,0.000000387080,   8.56000,
,,,0.000000387120,   8.56000,
,,,0.000000387160,   8.64000,
,,,0.000000387200,   8.64000,
,,,0.000000387240,   8.64000,
,,,0.000000387280,   8.64000,
,,,0.000000387320,   8.64000,
,,,0.000000387360,   8.64000,
,,,0.000000387400,   8.64000,
,,,0.000000387440,   8.64000,
,,,0.000000387480,   8.64000,
,,,0.000000387520,   8.64000,
,,,0.000000387560,   8.64000,
,,,0.000000387600,   8.64000,
,,,0.000000387640,   8.64000,
,,,0.000000387680,   8.64000,
,,,0.000000387720,   8.64000,
,,,0.000000387760,   8.64000,
,,,0.000000387800,   8.72000,
,,,0.000000387840,   8.72000,
,,,0.000000387880,   8.72000,
,,,0.000000387920,   8.72000,
,,,0.000000387960,   8.72000,
,,,0.000000388000,   8.72000,
,,,0.000000388040,   8.72000,
,,,0.000000388080,   8.72000,
,,,0.000000388120,   8.72000,
,,,0.000000388160,   8.72000,
,,,0.000000388200,   8.72000,
,,,0.000000388240,   8.72000,
,,,0.000000388280,   8.72000,
,,,0.000000388320,   8.72000,
,,,0.000000388360,   8.72000,
,,,0.000000388400,   8.72000,
,,,0.000000388440,   8.72000,
,,,0.000000388480,   8.72000,
,,,0.000000388520,   8.80000,
,,,0.000000388560,   8.80000,
,,,0.000000388600,   8.80000,
,,,0.000000388640,   8.80000,
,,,0.000000388680,   8.80000,
,,,0.000000388720,   8.80000,
,,,0.000000388760,   8.80000,
,,,0.000000388800,   8.80000,
,,,0.000000388840,   8.80000,
,,,0.000000388880,   8.80000,
,,,0.000000388920,   8.80000,
,,,0.000000388960,   8.80000,
,,,0.000000389000,   8.80000,
,,,0.000000389040,   8.80000,
,,,0.000000389080,   8.80000,
,,,0.000000389120,   8.80000,
,,,0.000000389160,   8.80000,
,,,0.000000389200,   8.80000,
,,,0.000000389240,   8.80000,
,,,0.000000389280,   8.80000,
,,,0.000000389320,   8.80000,
,,,0.000000389360,   8.88000,
,,,0.000000389400,   8.88000,
,,,0.000000389440,   8.88000,
,,,0.000000389480,   8.88000,
,,,0.000000389520,   8.88000,
,,,0.000000389560,   8.88000,
,,,0.000000389600,   8.88000,
,,,0.000000389640,   8.88000,
,,,0.000000389680,   8.88000,
,,,0.000000389720,   8.88000,
,,,0.000000389760,   8.88000,
,,,0.000000389800,   8.88000,
,,,0.000000389840,   8.88000,
,,,0.000000389880,   8.88000,
,,,0.000000389920,   8.88000,
,,,0.000000389960,   8.96000,
,,,0.000000390000,   8.96000,
,,,0.000000390040,   8.96000,
,,,0.000000390080,   8.96000,
,,,0.000000390120,   8.96000,
,,,0.000000390160,   8.96000,
,,,0.000000390200,   8.96000,
,,,0.000000390240,   8.96000,
,,,0.000000390280,   8.96000,
,,,0.000000390320,   8.96000,
,,,0.000000390360,   8.96000,
,,,0.000000390400,   8.96000,
,,,0.000000390440,   8.96000,
,,,0.000000390480,   8.96000,
,,,0.000000390520,   8.96000,
,,,0.000000390560,   8.96000,
,,,0.000000390600,   8.96000,
,,,0.000000390640,   8.96000,
,,,0.000000390680,   8.96000,
,,,0.000000390720,   8.96000,
,,,0.000000390760,   9.04000,
,,,0.000000390800,   9.04000,
,,,0.000000390840,   9.04000,
,,,0.000000390880,   9.04000,
,,,0.000000390920,   9.04000,
,,,0.000000390960,   9.04000,
,,,0.000000391000,   9.04000,
,,,0.000000391040,   9.04000,
,,,0.000000391080,   9.04000,
,,,0.000000391120,   9.04000,
,,,0.000000391160,   9.04000,
,,,0.000000391200,   9.04000,
,,,0.000000391240,   9.04000,
,,,0.000000391280,   9.04000,
,,,0.000000391320,   9.04000,
,,,0.000000391360,   9.04000,
,,,0.000000391400,   9.04000,
,,,0.000000391440,   9.04000,
,,,0.000000391480,   9.04000,
,,,0.000000391520,   9.04000,
,,,0.000000391560,   9.04000,
,,,0.000000391600,   9.12000,
,,,0.000000391640,   9.12000,
,,,0.000000391680,   9.12000,
,,,0.000000391720,   9.12000,
,,,0.000000391760,   9.12000,
,,,0.000000391800,   9.12000,
,,,0.000000391840,   9.12000,
,,,0.000000391880,   9.12000,
,,,0.000000391920,   9.12000,
,,,0.000000391960,   9.12000,
,,,0.000000392000,   9.12000,
,,,0.000000392040,   9.12000,
,,,0.000000392080,   9.12000,
,,,0.000000392120,   9.12000,
,,,0.000000392160,   9.12000,
,,,0.000000392200,   9.12000,
,,,0.000000392240,   9.12000,
,,,0.000000392280,   9.12000,
,,,0.000000392320,   9.12000,
,,,0.000000392360,   9.12000,
,,,0.000000392400,   9.12000,
,,,0.000000392440,   9.12000,
,,,0.000000392480,   9.20000,
,,,0.000000392520,   9.20000,
,,,0.000000392560,   9.20000,
,,,0.000000392600,   9.20000,
,,,0.000000392640,   9.20000,
,,,0.000000392680,   9.20000,
,,,0.000000392720,   9.20000,
,,,0.000000392760,   9.20000,
,,,0.000000392800,   9.20000,
,,,0.000000392840,   9.20000,
,,,0.000000392880,   9.20000,
,,,0.000000392920,   9.20000,
,,,0.000000392960,   9.20000,
,,,0.000000393000,   9.20000,
,,,0.000000393040,   9.20000,
,,,0.000000393080,   9.20000,
,,,0.000000393120,   9.20000,
,,,0.000000393160,   9.20000,
,,,0.000000393200,   9.20000,
,,,0.000000393240,   9.20000,
,,,0.000000393280,   9.20000,
,,,0.000000393320,   9.20000,
,,,0.000000393360,   9.20000,
,,,0.000000393400,   9.28000,
,,,0.000000393440,   9.28000,
,,,0.000000393480,   9.28000,
,,,0.000000393520,   9.28000,
,,,0.000000393560,   9.28000,
,,,0.000000393600,   9.28000,
,,,0.000000393640,   9.28000,
,,,0.000000393680,   9.28000,
,,,0.000000393720,   9.28000,
,,,0.000000393760,   9.28000,
,,,0.000000393800,   9.28000,
,,,0.000000393840,   9.28000,
,,,0.000000393880,   9.28000,
,,,0.000000393920,   9.28000,
,,,0.000000393960,   9.28000,
,,,0.000000394000,   9.28000,
,,,0.000000394040,   9.28000,
,,,0.000000394080,   9.28000,
,,,0.000000394120,   9.28000,
,,,0.000000394160,   9.28000,
,,,0.000000394200,   9.28000,
,,,0.000000394240,   9.28000,
,,,0.000000394280,   9.28000,
,,,0.000000394320,   9.36000,
,,,0.000000394360,   9.36000,
,,,0.000000394400,   9.36000,
,,,0.000000394440,   9.36000,
,,,0.000000394480,   9.36000,
,,,0.000000394520,   9.36000,
,,,0.000000394560,   9.36000,
,,,0.000000394600,   9.36000,
,,,0.000000394640,   9.36000,
,,,0.000000394680,   9.36000,
,,,0.000000394720,   9.36000,
,,,0.000000394760,   9.36000,
,,,0.000000394800,   9.36000,
,,,0.000000394840,   9.36000,
,,,0.000000394880,   9.36000,
,,,0.000000394920,   9.36000,
,,,0.000000394960,   9.36000,
,,,0.000000395000,   9.36000,
,,,0.000000395040,   9.36000,
,,,0.000000395080,   9.36000,
,,,0.000000395120,   9.36000,
,,,0.000000395160,   9.36000,
,,,0.000000395200,   9.36000,
,,,0.000000395240,   9.36000,
,,,0.000000395280,   9.36000,
,,,0.000000395320,   9.36000,
,,,0.000000395360,   9.44000,
,,,0.000000395400,   9.44000,
,,,0.000000395440,   9.44000,
,,,0.000000395480,   9.44000,
,,,0.000000395520,   9.44000,
,,,0.000000395560,   9.44000,
,,,0.000000395600,   9.44000,
,,,0.000000395640,   9.44000,
,,,0.000000395680,   9.44000,
,,,0.000000395720,   9.44000,
,,,0.000000395760,   9.44000,
,,,0.000000395800,   9.44000,
,,,0.000000395840,   9.44000,
,,,0.000000395880,   9.44000,
,,,0.000000395920,   9.44000,
,,,0.000000395960,   9.44000,
,,,0.000000396000,   9.44000,
,,,0.000000396040,   9.44000,
,,,0.000000396080,   9.44000,
,,,0.000000396120,   9.52000,
,,,0.000000396160,   9.52000,
,,,0.000000396200,   9.52000,
,,,0.000000396240,   9.52000,
,,,0.000000396280,   9.52000,
,,,0.000000396320,   9.52000,
,,,0.000000396360,   9.52000,
,,,0.000000396400,   9.52000,
,,,0.000000396440,   9.52000,
,,,0.000000396480,   9.52000,
,,,0.000000396520,   9.52000,
,,,0.000000396560,   9.52000,
,,,0.000000396600,   9.52000,
,,,0.000000396640,   9.52000,
,,,0.000000396680,   9.52000,
,,,0.000000396720,   9.52000,
,,,0.000000396760,   9.52000,
,,,0.000000396800,   9.52000,
,,,0.000000396840,   9.52000,
,,,0.000000396880,   9.52000,
,,,0.000000396920,   9.52000,
,,,0.000000396960,   9.52000,
,,,0.000000397000,   9.60000,
,,,0.000000397040,   9.60000,
,,,0.000000397080,   9.60000,
,,,0.000000397120,   9.60000,
,,,0.000000397160,   9.60000,
,,,0.000000397200,   9.60000,
,,,0.000000397240,   9.60000,
,,,0.000000397280,   9.60000,
,,,0.000000397320,   9.60000,
,,,0.000000397360,   9.60000,
,,,0.000000397400,   9.60000,
,,,0.000000397440,   9.60000,
,,,0.000000397480,   9.60000,
,,,0.000000397520,   9.60000,
,,,0.000000397560,   9.60000,
,,,0.000000397600,   9.60000,
,,,0.000000397640,   9.60000,
,,,0.000000397680,   9.60000,
,,,0.000000397720,   9.60000,
,,,0.000000397760,   9.60000,
,,,0.000000397800,   9.60000,
,,,0.000000397840,   9.60000,
,,,0.000000397880,   9.60000,
,,,0.000000397920,   9.60000,
,,,0.000000397960,   9.60000,
,,,0.000000398000,   9.60000,
,,,0.000000398040,   9.68000,
,,,0.000000398080,   9.68000,
,,,0.000000398120,   9.68000,
,,,0.000000398160,   9.68000,
,,,0.000000398200,   9.68000,
,,,0.000000398240,   9.68000,
,,,0.000000398280,   9.68000,
,,,0.000000398320,   9.68000,
,,,0.000000398360,   9.68000,
,,,0.000000398400,   9.68000,
,,,0.000000398440,   9.68000,
,,,0.000000398480,   9.68000,
,,,0.000000398520,   9.68000,
,,,0.000000398560,   9.68000,
,,,0.000000398600,   9.68000,
,,,0.000000398640,   9.68000,
,,,0.000000398680,   9.68000,
,,,0.000000398720,   9.68000,
,,,0.000000398760,   9.68000,
,,,0.000000398800,   9.68000,
,,,0.000000398840,   9.68000,
,,,0.000000398880,   9.68000,
,,,0.000000398920,   9.68000,
,,,0.000000398960,   9.68000,
,,,0.000000399000,   9.68000,
,,,0.000000399040,   9.68000,
,,,0.000000399080,   9.68000,
,,,0.000000399120,   9.68000,
